{
  "processing_ticks": 200,
  "ingredients": [
    {
      "item": "tardis:xion_crystal"
    },
    {
      "item": "tardis:circuits"
    }
  ],
  "result": {
    "item": "tardis:subsystem/nav_com"
  },
  "repair": true,
  "repair_item": "tardis:subsystem/nav_com",
  "type": "tardis:quantiscope"
}