{
  "processing_ticks": 200,
  "ingredients": [
    {
      "item": "minecraft:clock"
    },
    {
      "item": "minecraft:compass"
    },
    {
      "item": "minecraft:ender_eye"
    },
    {
      "item": "tardis:xion_crystal"
    }
  ],
  "result": {
    "item": "tardis:subsystem/nav_com"
  },
  "repair": false,
  "type": "tardis:quantiscope"
}