[
  {
    "block": {
      "Properties": {
        "waterlogged": "false",
        "shape": "straight",
        "half": "bottom",
        "facing": "east"
      },
      "Name": "minecraft:oak_stairs"
    },
    "x": -6,
    "y": 1,
    "z": -6
  },
  {
    "block": {
      "Name": "minecraft:oak_planks"
    },
    "x": -5,
    "y": 1,
    "z": -6
  },
  {
    "block": {
      "Name": "minecraft:oak_planks"
    },
    "x": 0,
    "y": 1,
    "z": -6
  },
  {
    "block": {
      "Properties": {
        "waterlogged": "false",
        "shape": "straight",
        "half": "bottom",
        "facing": "west"
      },
      "Name": "minecraft:oak_stairs"
    },
    "x": 1,
    "y": 1,
    "z": -6
  },
  {
    "block": {
      "Properties": {
        "waterlogged": "false",
        "shape": "straight",
        "half": "bottom",
        "facing": "east"
      },
      "Name": "minecraft:oak_stairs"
    },
    "x": -5,
    "y": 2,
    "z": -6
  },
  {
    "block": {
      "Name": "minecraft:oak_planks"
    },
    "x": -4,
    "y": 2,
    "z": -6
  },
  {
    "block": {
      "Name": "minecraft:oak_planks"
    },
    "x": -1,
    "y": 2,
    "z": -6
  },
  {
    "block": {
      "Properties": {
        "waterlogged": "false",
        "shape": "straight",
        "half": "bottom",
        "facing": "west"
      },
      "Name": "minecraft:oak_stairs"
    },
    "x": 0,
    "y": 2,
    "z": -6
  },
  {
    "block": {
      "Properties": {
        "waterlogged": "false",
        "shape": "straight",
        "half": "bottom",
        "facing": "east"
      },
      "Name": "minecraft:oak_stairs"
    },
    "x": -4,
    "y": 3,
    "z": -6
  },
  {
    "block": {
      "Name": "minecraft:oak_planks"
    },
    "x": -3,
    "y": 3,
    "z": -6
  },
  {
    "block": {
      "Name": "minecraft:oak_planks"
    },
    "x": -2,
    "y": 3,
    "z": -6
  },
  {
    "block": {
      "Properties": {
        "waterlogged": "false",
        "shape": "straight",
        "half": "bottom",
        "facing": "west"
      },
      "Name": "minecraft:oak_stairs"
    },
    "x": -1,
    "y": 3,
    "z": -6
  },
  {
    "block": {
      "Properties": {
        "waterlogged": "false",
        "shape": "straight",
        "half": "bottom",
        "facing": "east"
      },
      "Name": "minecraft:oak_stairs"
    },
    "x": -3,
    "y": 4,
    "z": -6
  },
  {
    "block": {
      "Properties": {
        "waterlogged": "false",
        "shape": "straight",
        "half": "bottom",
        "facing": "west"
      },
      "Name": "minecraft:oak_stairs"
    },
    "x": -2,
    "y": 4,
    "z": -6
  },
  {
    "block": {
      "Name": "minecraft:dirt"
    },
    "x": -5,
    "y": -3,
    "z": -5
  },
  {
    "block": {
      "Name": "minecraft:dirt"
    },
    "x": -4,
    "y": -3,
    "z": -5
  },
  {
    "block": {
      "Name": "minecraft:dirt"
    },
    "x": -3,
    "y": -3,
    "z": -5
  },
  {
    "block": {
      "Name": "minecraft:dirt"
    },
    "x": -2,
    "y": -3,
    "z": -5
  },
  {
    "block": {
      "Name": "minecraft:dirt"
    },
    "x": -1,
    "y": -3,
    "z": -5
  },
  {
    "block": {
      "Name": "minecraft:dirt"
    },
    "x": 0,
    "y": -3,
    "z": -5
  },
  {
    "block": {
      "Properties": {
        "axis": "y"
      },
      "Name": "minecraft:stripped_oak_log"
    },
    "x": -5,
    "y": -2,
    "z": -5
  },
  {
    "block": {
      "Name": "minecraft:cobblestone"
    },
    "x": -4,
    "y": -2,
    "z": -5
  },
  {
    "block": {
      "Name": "minecraft:cobblestone"
    },
    "x": -3,
    "y": -2,
    "z": -5
  },
  {
    "block": {
      "Name": "minecraft:cobblestone"
    },
    "x": -2,
    "y": -2,
    "z": -5
  },
  {
    "block": {
      "Name": "minecraft:cobblestone"
    },
    "x": -1,
    "y": -2,
    "z": -5
  },
  {
    "block": {
      "Properties": {
        "axis": "y"
      },
      "Name": "minecraft:stripped_oak_log"
    },
    "x": 0,
    "y": -2,
    "z": -5
  },
  {
    "block": {
      "Properties": {
        "axis": "y"
      },
      "Name": "minecraft:stripped_oak_log"
    },
    "x": -5,
    "y": -1,
    "z": -5
  },
  {
    "block": {
      "Name": "minecraft:cobblestone"
    },
    "x": -4,
    "y": -1,
    "z": -5
  },
  {
    "block": {
      "Name": "minecraft:cobblestone"
    },
    "x": -3,
    "y": -1,
    "z": -5
  },
  {
    "block": {
      "Name": "minecraft:cobblestone"
    },
    "x": -2,
    "y": -1,
    "z": -5
  },
  {
    "block": {
      "Name": "minecraft:cobblestone"
    },
    "x": -1,
    "y": -1,
    "z": -5
  },
  {
    "block": {
      "Properties": {
        "axis": "y"
      },
      "Name": "minecraft:stripped_oak_log"
    },
    "x": 0,
    "y": -1,
    "z": -5
  },
  {
    "block": {
      "Properties": {
        "axis": "y"
      },
      "Name": "minecraft:stripped_oak_log"
    },
    "x": -5,
    "y": 0,
    "z": -5
  },
  {
    "block": {
      "Properties": {
        "axis": "y"
      },
      "Name": "minecraft:oak_log"
    },
    "x": -4,
    "y": 0,
    "z": -5
  },
  {
    "block": {
      "Properties": {
        "west": "true",
        "waterlogged": "false",
        "south": "false",
        "north": "false",
        "east": "true"
      },
      "Name": "minecraft:glass_pane"
    },
    "x": -3,
    "y": 0,
    "z": -5
  },
  {
    "block": {
      "Properties": {
        "west": "true",
        "waterlogged": "false",
        "south": "false",
        "north": "false",
        "east": "true"
      },
      "Name": "minecraft:glass_pane"
    },
    "x": -2,
    "y": 0,
    "z": -5
  },
  {
    "block": {
      "Properties": {
        "axis": "y"
      },
      "Name": "minecraft:oak_log"
    },
    "x": -1,
    "y": 0,
    "z": -5
  },
  {
    "block": {
      "Properties": {
        "axis": "y"
      },
      "Name": "minecraft:stripped_oak_log"
    },
    "x": 0,
    "y": 0,
    "z": -5
  },
  {
    "block": {
      "Properties": {
        "waterlogged": "false",
        "shape": "straight",
        "half": "bottom",
        "facing": "east"
      },
      "Name": "minecraft:oak_stairs"
    },
    "x": -6,
    "y": 1,
    "z": -5
  },
  {
    "block": {
      "Properties": {
        "axis": "y"
      },
      "Name": "minecraft:stripped_oak_log"
    },
    "x": -5,
    "y": 1,
    "z": -5
  },
  {
    "block": {
      "Name": "minecraft:cobblestone"
    },
    "x": -4,
    "y": 1,
    "z": -5
  },
  {
    "block": {
      "Name": "minecraft:cobblestone"
    },
    "x": -3,
    "y": 1,
    "z": -5
  },
  {
    "block": {
      "Name": "minecraft:cobblestone"
    },
    "x": -2,
    "y": 1,
    "z": -5
  },
  {
    "block": {
      "Name": "minecraft:cobblestone"
    },
    "x": -1,
    "y": 1,
    "z": -5
  },
  {
    "block": {
      "Properties": {
        "axis": "y"
      },
      "Name": "minecraft:stripped_oak_log"
    },
    "x": 0,
    "y": 1,
    "z": -5
  },
  {
    "block": {
      "Properties": {
        "waterlogged": "false",
        "shape": "straight",
        "half": "bottom",
        "facing": "west"
      },
      "Name": "minecraft:oak_stairs"
    },
    "x": 1,
    "y": 1,
    "z": -5
  },
  {
    "block": {
      "Properties": {
        "waterlogged": "false",
        "shape": "straight",
        "half": "bottom",
        "facing": "east"
      },
      "Name": "minecraft:oak_stairs"
    },
    "x": -5,
    "y": 2,
    "z": -5
  },
  {
    "block": {
      "Name": "minecraft:oak_planks"
    },
    "x": -4,
    "y": 2,
    "z": -5
  },
  {
    "block": {
      "Name": "minecraft:cobblestone"
    },
    "x": -3,
    "y": 2,
    "z": -5
  },
  {
    "block": {
      "Name": "minecraft:cobblestone"
    },
    "x": -2,
    "y": 2,
    "z": -5
  },
  {
    "block": {
      "Name": "minecraft:oak_planks"
    },
    "x": -1,
    "y": 2,
    "z": -5
  },
  {
    "block": {
      "Properties": {
        "waterlogged": "false",
        "shape": "straight",
        "half": "bottom",
        "facing": "west"
      },
      "Name": "minecraft:oak_stairs"
    },
    "x": 0,
    "y": 2,
    "z": -5
  },
  {
    "block": {
      "Properties": {
        "waterlogged": "false",
        "shape": "straight",
        "half": "bottom",
        "facing": "east"
      },
      "Name": "minecraft:oak_stairs"
    },
    "x": -4,
    "y": 3,
    "z": -5
  },
  {
    "block": {
      "Name": "minecraft:oak_planks"
    },
    "x": -3,
    "y": 3,
    "z": -5
  },
  {
    "block": {
      "Name": "minecraft:oak_planks"
    },
    "x": -2,
    "y": 3,
    "z": -5
  },
  {
    "block": {
      "Properties": {
        "waterlogged": "false",
        "shape": "straight",
        "half": "bottom",
        "facing": "west"
      },
      "Name": "minecraft:oak_stairs"
    },
    "x": -1,
    "y": 3,
    "z": -5
  },
  {
    "block": {
      "Properties": {
        "waterlogged": "false",
        "shape": "straight",
        "half": "bottom",
        "facing": "east"
      },
      "Name": "minecraft:oak_stairs"
    },
    "x": -3,
    "y": 4,
    "z": -5
  },
  {
    "block": {
      "Properties": {
        "waterlogged": "false",
        "shape": "straight",
        "half": "bottom",
        "facing": "west"
      },
      "Name": "minecraft:oak_stairs"
    },
    "x": -2,
    "y": 4,
    "z": -5
  },
  {
    "block": {
      "Name": "minecraft:dirt"
    },
    "x": -5,
    "y": -3,
    "z": -4
  },
  {
    "block": {
      "Name": "minecraft:dirt"
    },
    "x": -4,
    "y": -3,
    "z": -4
  },
  {
    "block": {
      "Name": "minecraft:dirt"
    },
    "x": -3,
    "y": -3,
    "z": -4
  },
  {
    "block": {
      "Name": "minecraft:dirt"
    },
    "x": -2,
    "y": -3,
    "z": -4
  },
  {
    "block": {
      "Name": "minecraft:dirt"
    },
    "x": -1,
    "y": -3,
    "z": -4
  },
  {
    "block": {
      "Name": "minecraft:dirt"
    },
    "x": 0,
    "y": -3,
    "z": -4
  },
  {
    "block": {
      "Name": "minecraft:cobblestone"
    },
    "x": -5,
    "y": -2,
    "z": -4
  },
  {
    "block": {
      "Name": "minecraft:oak_planks"
    },
    "x": -4,
    "y": -2,
    "z": -4
  },
  {
    "block": {
      "Name": "minecraft:oak_planks"
    },
    "x": -3,
    "y": -2,
    "z": -4
  },
  {
    "block": {
      "Name": "minecraft:oak_planks"
    },
    "x": -2,
    "y": -2,
    "z": -4
  },
  {
    "block": {
      "Name": "minecraft:oak_planks"
    },
    "x": -1,
    "y": -2,
    "z": -4
  },
  {
    "block": {
      "Name": "minecraft:cobblestone"
    },
    "x": 0,
    "y": -2,
    "z": -4
  },
  {
    "block": {
      "Name": "minecraft:cobblestone"
    },
    "x": -5,
    "y": -1,
    "z": -4
  },
  {
    "block": {
      "Name": "minecraft:cobblestone"
    },
    "x": 0,
    "y": -1,
    "z": -4
  },
  {
    "block": {
      "Properties": {
        "facing": "west"
      },
      "Name": "minecraft:wall_torch"
    },
    "x": -6,
    "y": 0,
    "z": -4
  },
  {
    "block": {
      "Properties": {
        "axis": "z"
      },
      "Name": "minecraft:stripped_oak_log"
    },
    "x": -5,
    "y": 0,
    "z": -4
  },
  {
    "block": {
      "Name": "minecraft:oak_planks"
    },
    "x": 0,
    "y": 0,
    "z": -4
  },
  {
    "block": {
      "Properties": {
        "waterlogged": "false",
        "shape": "straight",
        "half": "bottom",
        "facing": "east"
      },
      "Name": "minecraft:oak_stairs"
    },
    "x": -6,
    "y": 1,
    "z": -4
  },
  {
    "block": {
      "Name": "minecraft:oak_planks"
    },
    "x": -5,
    "y": 1,
    "z": -4
  },
  {
    "block": {
      "Name": "minecraft:oak_planks"
    },
    "x": 0,
    "y": 1,
    "z": -4
  },
  {
    "block": {
      "Name": "minecraft:oak_planks"
    },
    "x": 1,
    "y": 1,
    "z": -4
  },
  {
    "block": {
      "Properties": {
        "waterlogged": "false",
        "shape": "straight",
        "half": "bottom",
        "facing": "south"
      },
      "Name": "minecraft:oak_stairs"
    },
    "x": 2,
    "y": 1,
    "z": -4
  },
  {
    "block": {
      "Properties": {
        "waterlogged": "false",
        "shape": "straight",
        "half": "bottom",
        "facing": "south"
      },
      "Name": "minecraft:oak_stairs"
    },
    "x": 3,
    "y": 1,
    "z": -4
  },
  {
    "block": {
      "Properties": {
        "waterlogged": "false",
        "shape": "straight",
        "half": "bottom",
        "facing": "south"
      },
      "Name": "minecraft:oak_stairs"
    },
    "x": 4,
    "y": 1,
    "z": -4
  },
  {
    "block": {
      "Properties": {
        "waterlogged": "false",
        "shape": "straight",
        "half": "bottom",
        "facing": "south"
      },
      "Name": "minecraft:oak_stairs"
    },
    "x": 5,
    "y": 1,
    "z": -4
  },
  {
    "block": {
      "Properties": {
        "waterlogged": "false",
        "shape": "straight",
        "half": "bottom",
        "facing": "south"
      },
      "Name": "minecraft:oak_stairs"
    },
    "x": 6,
    "y": 1,
    "z": -4
  },
  {
    "block": {
      "Properties": {
        "waterlogged": "false",
        "shape": "straight",
        "half": "bottom",
        "facing": "east"
      },
      "Name": "minecraft:oak_stairs"
    },
    "x": -5,
    "y": 2,
    "z": -4
  },
  {
    "block": {
      "Name": "minecraft:oak_planks"
    },
    "x": -4,
    "y": 2,
    "z": -4
  },
  {
    "block": {
      "Name": "minecraft:oak_planks"
    },
    "x": -1,
    "y": 2,
    "z": -4
  },
  {
    "block": {
      "Properties": {
        "waterlogged": "false",
        "shape": "straight",
        "half": "bottom",
        "facing": "west"
      },
      "Name": "minecraft:oak_stairs"
    },
    "x": 0,
    "y": 2,
    "z": -4
  },
  {
    "block": {
      "Properties": {
        "waterlogged": "false",
        "shape": "straight",
        "half": "bottom",
        "facing": "east"
      },
      "Name": "minecraft:oak_stairs"
    },
    "x": -4,
    "y": 3,
    "z": -4
  },
  {
    "block": {
      "Name": "minecraft:oak_planks"
    },
    "x": -3,
    "y": 3,
    "z": -4
  },
  {
    "block": {
      "Name": "minecraft:oak_planks"
    },
    "x": -2,
    "y": 3,
    "z": -4
  },
  {
    "block": {
      "Properties": {
        "waterlogged": "false",
        "shape": "straight",
        "half": "bottom",
        "facing": "west"
      },
      "Name": "minecraft:oak_stairs"
    },
    "x": -1,
    "y": 3,
    "z": -4
  },
  {
    "block": {
      "Properties": {
        "waterlogged": "false",
        "shape": "straight",
        "half": "bottom",
        "facing": "east"
      },
      "Name": "minecraft:oak_stairs"
    },
    "x": -3,
    "y": 4,
    "z": -4
  },
  {
    "block": {
      "Properties": {
        "waterlogged": "false",
        "shape": "straight",
        "half": "bottom",
        "facing": "west"
      },
      "Name": "minecraft:oak_stairs"
    },
    "x": -2,
    "y": 4,
    "z": -4
  },
  {
    "block": {
      "Name": "minecraft:dirt"
    },
    "x": -6,
    "y": -3,
    "z": -3
  },
  {
    "block": {
      "Name": "minecraft:dirt"
    },
    "x": -5,
    "y": -3,
    "z": -3
  },
  {
    "block": {
      "Name": "minecraft:dirt"
    },
    "x": -4,
    "y": -3,
    "z": -3
  },
  {
    "block": {
      "Name": "minecraft:dirt"
    },
    "x": -3,
    "y": -3,
    "z": -3
  },
  {
    "block": {
      "Name": "minecraft:dirt"
    },
    "x": -2,
    "y": -3,
    "z": -3
  },
  {
    "block": {
      "Name": "minecraft:dirt"
    },
    "x": -1,
    "y": -3,
    "z": -3
  },
  {
    "block": {
      "Name": "minecraft:dirt"
    },
    "x": 0,
    "y": -3,
    "z": -3
  },
  {
    "block": {
      "Name": "minecraft:dirt"
    },
    "x": 1,
    "y": -3,
    "z": -3
  },
  {
    "block": {
      "Name": "minecraft:dirt"
    },
    "x": 2,
    "y": -3,
    "z": -3
  },
  {
    "block": {
      "Name": "minecraft:dirt"
    },
    "x": 3,
    "y": -3,
    "z": -3
  },
  {
    "block": {
      "Name": "minecraft:dirt"
    },
    "x": 4,
    "y": -3,
    "z": -3
  },
  {
    "block": {
      "Name": "minecraft:dirt"
    },
    "x": 5,
    "y": -3,
    "z": -3
  },
  {
    "block": {
      "Properties": {
        "waterlogged": "false",
        "shape": "straight",
        "half": "bottom",
        "facing": "east"
      },
      "Name": "minecraft:oak_stairs"
    },
    "x": -6,
    "y": -2,
    "z": -3
  },
  {
    "block": {
      "Name": "minecraft:cobblestone"
    },
    "x": -5,
    "y": -2,
    "z": -3
  },
  {
    "block": {
      "Name": "minecraft:oak_planks"
    },
    "x": -4,
    "y": -2,
    "z": -3
  },
  {
    "block": {
      "Name": "minecraft:oak_planks"
    },
    "x": -3,
    "y": -2,
    "z": -3
  },
  {
    "block": {
      "Name": "minecraft:oak_planks"
    },
    "x": -2,
    "y": -2,
    "z": -3
  },
  {
    "block": {
      "Name": "minecraft:oak_planks"
    },
    "x": -1,
    "y": -2,
    "z": -3
  },
  {
    "block": {
      "Name": "minecraft:cobblestone"
    },
    "x": 0,
    "y": -2,
    "z": -3
  },
  {
    "block": {
      "Name": "minecraft:cobblestone"
    },
    "x": 1,
    "y": -2,
    "z": -3
  },
  {
    "block": {
      "Name": "minecraft:cobblestone"
    },
    "x": 2,
    "y": -2,
    "z": -3
  },
  {
    "block": {
      "Name": "minecraft:cobblestone"
    },
    "x": 3,
    "y": -2,
    "z": -3
  },
  {
    "block": {
      "Name": "minecraft:cobblestone"
    },
    "x": 4,
    "y": -2,
    "z": -3
  },
  {
    "block": {
      "Properties": {
        "axis": "y"
      },
      "Name": "minecraft:stripped_oak_log"
    },
    "x": 5,
    "y": -2,
    "z": -3
  },
  {
    "block": {
      "Properties": {
        "powered": "false",
        "open": "false",
        "hinge": "left",
        "half": "lower",
        "facing": "east"
      },
      "Name": "minecraft:oak_door"
    },
    "x": -5,
    "y": -1,
    "z": -3
  },
  {
    "block": {
      "Name": "minecraft:cobblestone"
    },
    "x": 0,
    "y": -1,
    "z": -3
  },
  {
    "block": {
      "Name": "minecraft:cobblestone"
    },
    "x": 1,
    "y": -1,
    "z": -3
  },
  {
    "block": {
      "Name": "minecraft:cobblestone"
    },
    "x": 2,
    "y": -1,
    "z": -3
  },
  {
    "block": {
      "Name": "minecraft:cobblestone"
    },
    "x": 3,
    "y": -1,
    "z": -3
  },
  {
    "block": {
      "Name": "minecraft:cobblestone"
    },
    "x": 4,
    "y": -1,
    "z": -3
  },
  {
    "block": {
      "Properties": {
        "axis": "y"
      },
      "Name": "minecraft:stripped_oak_log"
    },
    "x": 5,
    "y": -1,
    "z": -3
  },
  {
    "block": {
      "Properties": {
        "powered": "false",
        "open": "false",
        "hinge": "left",
        "half": "upper",
        "facing": "east"
      },
      "Name": "minecraft:oak_door"
    },
    "x": -5,
    "y": 0,
    "z": -3
  },
  {
    "block": {
      "Name": "minecraft:oak_planks"
    },
    "x": 0,
    "y": 0,
    "z": -3
  },
  {
    "block": {
      "Properties": {
        "axis": "y"
      },
      "Name": "minecraft:oak_log"
    },
    "x": 1,
    "y": 0,
    "z": -3
  },
  {
    "block": {
      "Properties": {
        "west": "true",
        "waterlogged": "false",
        "south": "false",
        "north": "false",
        "east": "true"
      },
      "Name": "minecraft:glass_pane"
    },
    "x": 2,
    "y": 0,
    "z": -3
  },
  {
    "block": {
      "Properties": {
        "west": "true",
        "waterlogged": "false",
        "south": "false",
        "north": "false",
        "east": "true"
      },
      "Name": "minecraft:glass_pane"
    },
    "x": 3,
    "y": 0,
    "z": -3
  },
  {
    "block": {
      "Properties": {
        "axis": "y"
      },
      "Name": "minecraft:oak_log"
    },
    "x": 4,
    "y": 0,
    "z": -3
  },
  {
    "block": {
      "Properties": {
        "axis": "y"
      },
      "Name": "minecraft:stripped_oak_log"
    },
    "x": 5,
    "y": 0,
    "z": -3
  },
  {
    "block": {
      "Properties": {
        "waterlogged": "false",
        "shape": "straight",
        "half": "bottom",
        "facing": "east"
      },
      "Name": "minecraft:oak_stairs"
    },
    "x": -6,
    "y": 1,
    "z": -3
  },
  {
    "block": {
      "Name": "minecraft:oak_planks"
    },
    "x": -5,
    "y": 1,
    "z": -3
  },
  {
    "block": {
      "Properties": {
        "facing": "east"
      },
      "Name": "minecraft:wall_torch"
    },
    "x": -4,
    "y": 1,
    "z": -3
  },
  {
    "block": {
      "Name": "minecraft:oak_planks"
    },
    "x": 0,
    "y": 1,
    "z": -3
  },
  {
    "block": {
      "Name": "minecraft:cobblestone"
    },
    "x": 1,
    "y": 1,
    "z": -3
  },
  {
    "block": {
      "Name": "minecraft:cobblestone"
    },
    "x": 2,
    "y": 1,
    "z": -3
  },
  {
    "block": {
      "Name": "minecraft:cobblestone"
    },
    "x": 3,
    "y": 1,
    "z": -3
  },
  {
    "block": {
      "Name": "minecraft:cobblestone"
    },
    "x": 4,
    "y": 1,
    "z": -3
  },
  {
    "block": {
      "Properties": {
        "axis": "y"
      },
      "Name": "minecraft:stripped_oak_log"
    },
    "x": 5,
    "y": 1,
    "z": -3
  },
  {
    "block": {
      "Name": "minecraft:oak_planks"
    },
    "x": 6,
    "y": 1,
    "z": -3
  },
  {
    "block": {
      "Properties": {
        "waterlogged": "false",
        "shape": "straight",
        "half": "bottom",
        "facing": "east"
      },
      "Name": "minecraft:oak_stairs"
    },
    "x": -5,
    "y": 2,
    "z": -3
  },
  {
    "block": {
      "Name": "minecraft:oak_planks"
    },
    "x": -4,
    "y": 2,
    "z": -3
  },
  {
    "block": {
      "Name": "minecraft:oak_planks"
    },
    "x": -1,
    "y": 2,
    "z": -3
  },
  {
    "block": {
      "Name": "minecraft:oak_planks"
    },
    "x": 0,
    "y": 2,
    "z": -3
  },
  {
    "block": {
      "Properties": {
        "waterlogged": "false",
        "shape": "straight",
        "half": "bottom",
        "facing": "south"
      },
      "Name": "minecraft:oak_stairs"
    },
    "x": 1,
    "y": 2,
    "z": -3
  },
  {
    "block": {
      "Properties": {
        "waterlogged": "false",
        "shape": "straight",
        "half": "bottom",
        "facing": "south"
      },
      "Name": "minecraft:oak_stairs"
    },
    "x": 2,
    "y": 2,
    "z": -3
  },
  {
    "block": {
      "Properties": {
        "waterlogged": "false",
        "shape": "straight",
        "half": "bottom",
        "facing": "south"
      },
      "Name": "minecraft:oak_stairs"
    },
    "x": 3,
    "y": 2,
    "z": -3
  },
  {
    "block": {
      "Properties": {
        "waterlogged": "false",
        "shape": "straight",
        "half": "bottom",
        "facing": "south"
      },
      "Name": "minecraft:oak_stairs"
    },
    "x": 4,
    "y": 2,
    "z": -3
  },
  {
    "block": {
      "Properties": {
        "waterlogged": "false",
        "shape": "straight",
        "half": "bottom",
        "facing": "south"
      },
      "Name": "minecraft:oak_stairs"
    },
    "x": 5,
    "y": 2,
    "z": -3
  },
  {
    "block": {
      "Properties": {
        "waterlogged": "false",
        "shape": "straight",
        "half": "bottom",
        "facing": "south"
      },
      "Name": "minecraft:oak_stairs"
    },
    "x": 6,
    "y": 2,
    "z": -3
  },
  {
    "block": {
      "Properties": {
        "waterlogged": "false",
        "shape": "straight",
        "half": "bottom",
        "facing": "east"
      },
      "Name": "minecraft:oak_stairs"
    },
    "x": -4,
    "y": 3,
    "z": -3
  },
  {
    "block": {
      "Name": "minecraft:oak_planks"
    },
    "x": -3,
    "y": 3,
    "z": -3
  },
  {
    "block": {
      "Name": "minecraft:oak_planks"
    },
    "x": -2,
    "y": 3,
    "z": -3
  },
  {
    "block": {
      "Properties": {
        "waterlogged": "false",
        "shape": "straight",
        "half": "bottom",
        "facing": "west"
      },
      "Name": "minecraft:oak_stairs"
    },
    "x": -1,
    "y": 3,
    "z": -3
  },
  {
    "block": {
      "Properties": {
        "waterlogged": "false",
        "shape": "straight",
        "half": "bottom",
        "facing": "east"
      },
      "Name": "minecraft:oak_stairs"
    },
    "x": -3,
    "y": 4,
    "z": -3
  },
  {
    "block": {
      "Properties": {
        "waterlogged": "false",
        "shape": "straight",
        "half": "bottom",
        "facing": "west"
      },
      "Name": "minecraft:oak_stairs"
    },
    "x": -2,
    "y": 4,
    "z": -3
  },
  {
    "block": {
      "Name": "minecraft:dirt"
    },
    "x": -6,
    "y": -3,
    "z": -2
  },
  {
    "block": {
      "Name": "minecraft:dirt"
    },
    "x": -5,
    "y": -3,
    "z": -2
  },
  {
    "block": {
      "Name": "minecraft:dirt"
    },
    "x": -4,
    "y": -3,
    "z": -2
  },
  {
    "block": {
      "Name": "minecraft:dirt"
    },
    "x": -3,
    "y": -3,
    "z": -2
  },
  {
    "block": {
      "Name": "minecraft:dirt"
    },
    "x": -2,
    "y": -3,
    "z": -2
  },
  {
    "block": {
      "Name": "minecraft:dirt"
    },
    "x": -1,
    "y": -3,
    "z": -2
  },
  {
    "block": {
      "Name": "minecraft:dirt"
    },
    "x": 0,
    "y": -3,
    "z": -2
  },
  {
    "block": {
      "Name": "minecraft:dirt"
    },
    "x": 1,
    "y": -3,
    "z": -2
  },
  {
    "block": {
      "Name": "minecraft:dirt"
    },
    "x": 2,
    "y": -3,
    "z": -2
  },
  {
    "block": {
      "Name": "minecraft:dirt"
    },
    "x": 3,
    "y": -3,
    "z": -2
  },
  {
    "block": {
      "Name": "minecraft:dirt"
    },
    "x": 4,
    "y": -3,
    "z": -2
  },
  {
    "block": {
      "Name": "minecraft:dirt"
    },
    "x": 5,
    "y": -3,
    "z": -2
  },
  {
    "block": {
      "Name": "minecraft:cobblestone"
    },
    "x": -5,
    "y": -2,
    "z": -2
  },
  {
    "block": {
      "Name": "minecraft:oak_planks"
    },
    "x": -4,
    "y": -2,
    "z": -2
  },
  {
    "block": {
      "Name": "minecraft:oak_planks"
    },
    "x": -3,
    "y": -2,
    "z": -2
  },
  {
    "block": {
      "Name": "minecraft:oak_planks"
    },
    "x": -2,
    "y": -2,
    "z": -2
  },
  {
    "block": {
      "Name": "minecraft:oak_planks"
    },
    "x": -1,
    "y": -2,
    "z": -2
  },
  {
    "block": {
      "Name": "minecraft:oak_planks"
    },
    "x": 0,
    "y": -2,
    "z": -2
  },
  {
    "block": {
      "Name": "minecraft:oak_planks"
    },
    "x": 1,
    "y": -2,
    "z": -2
  },
  {
    "block": {
      "Name": "minecraft:oak_planks"
    },
    "x": 2,
    "y": -2,
    "z": -2
  },
  {
    "block": {
      "Name": "minecraft:oak_planks"
    },
    "x": 3,
    "y": -2,
    "z": -2
  },
  {
    "block": {
      "Name": "minecraft:oak_planks"
    },
    "x": 4,
    "y": -2,
    "z": -2
  },
  {
    "block": {
      "Name": "minecraft:cobblestone"
    },
    "x": 5,
    "y": -2,
    "z": -2
  },
  {
    "block": {
      "Name": "minecraft:cobblestone"
    },
    "x": -5,
    "y": -1,
    "z": -2
  },
  {
    "block": {
      "Properties": {
        "west": "false",
        "waterlogged": "false",
        "south": "false",
        "north": "true",
        "east": "true"
      },
      "Name": "minecraft:oak_fence"
    },
    "x": 4,
    "y": -1,
    "z": -2
  },
  {
    "block": {
      "Name": "minecraft:cobblestone"
    },
    "x": 5,
    "y": -1,
    "z": -2
  },
  {
    "block": {
      "Properties": {
        "facing": "west"
      },
      "Name": "minecraft:wall_torch"
    },
    "x": -6,
    "y": 0,
    "z": -2
  },
  {
    "block": {
      "Properties": {
        "axis": "z"
      },
      "Name": "minecraft:stripped_oak_log"
    },
    "x": -5,
    "y": 0,
    "z": -2
  },
  {
    "block": {
      "Properties": {
        "powered": "false"
      },
      "Name": "minecraft:oak_pressure_plate"
    },
    "x": 4,
    "y": 0,
    "z": -2
  },
  {
    "block": {
      "Name": "minecraft:cobblestone"
    },
    "x": 5,
    "y": 0,
    "z": -2
  },
  {
    "block": {
      "Properties": {
        "waterlogged": "false",
        "shape": "straight",
        "half": "bottom",
        "facing": "east"
      },
      "Name": "minecraft:oak_stairs"
    },
    "x": -6,
    "y": 1,
    "z": -2
  },
  {
    "block": {
      "Name": "minecraft:oak_planks"
    },
    "x": -5,
    "y": 1,
    "z": -2
  },
  {
    "block": {
      "Name": "minecraft:cobblestone"
    },
    "x": 5,
    "y": 1,
    "z": -2
  },
  {
    "block": {
      "Properties": {
        "waterlogged": "false",
        "shape": "straight",
        "half": "bottom",
        "facing": "east"
      },
      "Name": "minecraft:oak_stairs"
    },
    "x": -5,
    "y": 2,
    "z": -2
  },
  {
    "block": {
      "Name": "minecraft:oak_planks"
    },
    "x": -4,
    "y": 2,
    "z": -2
  },
  {
    "block": {
      "Name": "minecraft:oak_planks"
    },
    "x": -1,
    "y": 2,
    "z": -2
  },
  {
    "block": {
      "Name": "minecraft:oak_planks"
    },
    "x": 0,
    "y": 2,
    "z": -2
  },
  {
    "block": {
      "Name": "minecraft:oak_planks"
    },
    "x": 1,
    "y": 2,
    "z": -2
  },
  {
    "block": {
      "Name": "minecraft:oak_planks"
    },
    "x": 2,
    "y": 2,
    "z": -2
  },
  {
    "block": {
      "Name": "minecraft:oak_planks"
    },
    "x": 3,
    "y": 2,
    "z": -2
  },
  {
    "block": {
      "Name": "minecraft:oak_planks"
    },
    "x": 4,
    "y": 2,
    "z": -2
  },
  {
    "block": {
      "Name": "minecraft:oak_planks"
    },
    "x": 5,
    "y": 2,
    "z": -2
  },
  {
    "block": {
      "Name": "minecraft:oak_planks"
    },
    "x": 6,
    "y": 2,
    "z": -2
  },
  {
    "block": {
      "Properties": {
        "waterlogged": "false",
        "shape": "straight",
        "half": "bottom",
        "facing": "east"
      },
      "Name": "minecraft:oak_stairs"
    },
    "x": -4,
    "y": 3,
    "z": -2
  },
  {
    "block": {
      "Name": "minecraft:oak_planks"
    },
    "x": -3,
    "y": 3,
    "z": -2
  },
  {
    "block": {
      "Name": "minecraft:oak_planks"
    },
    "x": -2,
    "y": 3,
    "z": -2
  },
  {
    "block": {
      "Name": "minecraft:oak_planks"
    },
    "x": -1,
    "y": 3,
    "z": -2
  },
  {
    "block": {
      "Properties": {
        "waterlogged": "false",
        "shape": "straight",
        "half": "bottom",
        "facing": "south"
      },
      "Name": "minecraft:oak_stairs"
    },
    "x": 0,
    "y": 3,
    "z": -2
  },
  {
    "block": {
      "Properties": {
        "waterlogged": "false",
        "shape": "straight",
        "half": "bottom",
        "facing": "south"
      },
      "Name": "minecraft:oak_stairs"
    },
    "x": 1,
    "y": 3,
    "z": -2
  },
  {
    "block": {
      "Properties": {
        "waterlogged": "false",
        "shape": "straight",
        "half": "bottom",
        "facing": "south"
      },
      "Name": "minecraft:oak_stairs"
    },
    "x": 2,
    "y": 3,
    "z": -2
  },
  {
    "block": {
      "Properties": {
        "waterlogged": "false",
        "shape": "straight",
        "half": "bottom",
        "facing": "south"
      },
      "Name": "minecraft:oak_stairs"
    },
    "x": 3,
    "y": 3,
    "z": -2
  },
  {
    "block": {
      "Properties": {
        "waterlogged": "false",
        "shape": "straight",
        "half": "bottom",
        "facing": "south"
      },
      "Name": "minecraft:oak_stairs"
    },
    "x": 4,
    "y": 3,
    "z": -2
  },
  {
    "block": {
      "Properties": {
        "waterlogged": "false",
        "shape": "straight",
        "half": "bottom",
        "facing": "south"
      },
      "Name": "minecraft:oak_stairs"
    },
    "x": 5,
    "y": 3,
    "z": -2
  },
  {
    "block": {
      "Properties": {
        "waterlogged": "false",
        "shape": "straight",
        "half": "bottom",
        "facing": "south"
      },
      "Name": "minecraft:oak_stairs"
    },
    "x": 6,
    "y": 3,
    "z": -2
  },
  {
    "block": {
      "Properties": {
        "waterlogged": "false",
        "shape": "straight",
        "half": "bottom",
        "facing": "east"
      },
      "Name": "minecraft:oak_stairs"
    },
    "x": -3,
    "y": 4,
    "z": -2
  },
  {
    "block": {
      "Properties": {
        "waterlogged": "false",
        "shape": "straight",
        "half": "bottom",
        "facing": "west"
      },
      "Name": "minecraft:oak_stairs"
    },
    "x": -2,
    "y": 4,
    "z": -2
  },
  {
    "block": {
      "Name": "minecraft:dirt"
    },
    "x": -5,
    "y": -3,
    "z": -1
  },
  {
    "block": {
      "Name": "minecraft:dirt"
    },
    "x": -4,
    "y": -3,
    "z": -1
  },
  {
    "block": {
      "Name": "minecraft:dirt"
    },
    "x": -3,
    "y": -3,
    "z": -1
  },
  {
    "block": {
      "Name": "minecraft:dirt"
    },
    "x": -2,
    "y": -3,
    "z": -1
  },
  {
    "block": {
      "Name": "minecraft:dirt"
    },
    "x": -1,
    "y": -3,
    "z": -1
  },
  {
    "block": {
      "Name": "minecraft:dirt"
    },
    "x": 0,
    "y": -3,
    "z": -1
  },
  {
    "block": {
      "Name": "minecraft:dirt"
    },
    "x": 1,
    "y": -3,
    "z": -1
  },
  {
    "block": {
      "Name": "minecraft:dirt"
    },
    "x": 2,
    "y": -3,
    "z": -1
  },
  {
    "block": {
      "Name": "minecraft:dirt"
    },
    "x": 3,
    "y": -3,
    "z": -1
  },
  {
    "block": {
      "Name": "minecraft:dirt"
    },
    "x": 4,
    "y": -3,
    "z": -1
  },
  {
    "block": {
      "Name": "minecraft:dirt"
    },
    "x": 5,
    "y": -3,
    "z": -1
  },
  {
    "block": {
      "Name": "minecraft:cobblestone"
    },
    "x": -5,
    "y": -2,
    "z": -1
  },
  {
    "block": {
      "Name": "minecraft:oak_planks"
    },
    "x": -4,
    "y": -2,
    "z": -1
  },
  {
    "block": {
      "Name": "minecraft:oak_planks"
    },
    "x": -3,
    "y": -2,
    "z": -1
  },
  {
    "block": {
      "Name": "minecraft:oak_planks"
    },
    "x": -2,
    "y": -2,
    "z": -1
  },
  {
    "block": {
      "Name": "minecraft:oak_planks"
    },
    "x": -1,
    "y": -2,
    "z": -1
  },
  {
    "block": {
      "Name": "minecraft:oak_planks"
    },
    "x": 0,
    "y": -2,
    "z": -1
  },
  {
    "block": {
      "Name": "minecraft:oak_planks"
    },
    "x": 1,
    "y": -2,
    "z": -1
  },
  {
    "block": {
      "Name": "minecraft:oak_planks"
    },
    "x": 2,
    "y": -2,
    "z": -1
  },
  {
    "block": {
      "Name": "minecraft:oak_planks"
    },
    "x": 3,
    "y": -2,
    "z": -1
  },
  {
    "block": {
      "Name": "minecraft:oak_planks"
    },
    "x": 4,
    "y": -2,
    "z": -1
  },
  {
    "block": {
      "Name": "minecraft:cobblestone"
    },
    "x": 5,
    "y": -2,
    "z": -1
  },
  {
    "block": {
      "Name": "minecraft:cobblestone"
    },
    "x": -5,
    "y": -1,
    "z": -1
  },
  {
    "block": {
      "Properties": {
        "waterlogged": "false",
        "shape": "straight",
        "half": "bottom",
        "facing": "north"
      },
      "Name": "minecraft:oak_stairs"
    },
    "x": -4,
    "y": -1,
    "z": -1
  },
  {
    "block": {
      "Properties": {
        "part": "foot",
        "occupied": "false",
        "facing": "east"
      },
      "Name": "minecraft:white_bed"
    },
    "x": 3,
    "y": -1,
    "z": -1
  },
  {
    "block": {
      "Properties": {
        "part": "head",
        "occupied": "false",
        "facing": "east"
      },
      "Name": "minecraft:white_bed"
    },
    "x": 4,
    "y": -1,
    "z": -1
  },
  {
    "block": {
      "Name": "minecraft:cobblestone"
    },
    "x": 5,
    "y": -1,
    "z": -1
  },
  {
    "block": {
      "Properties": {
        "axis": "y"
      },
      "Name": "minecraft:oak_log"
    },
    "x": -5,
    "y": 0,
    "z": -1
  },
  {
    "block": {
      "Name": "minecraft:cobblestone"
    },
    "x": 5,
    "y": 0,
    "z": -1
  },
  {
    "block": {
      "Properties": {
        "waterlogged": "false",
        "shape": "straight",
        "half": "bottom",
        "facing": "east"
      },
      "Name": "minecraft:oak_stairs"
    },
    "x": -6,
    "y": 1,
    "z": -1
  },
  {
    "block": {
      "Name": "minecraft:oak_planks"
    },
    "x": -5,
    "y": 1,
    "z": -1
  },
  {
    "block": {
      "Name": "minecraft:cobblestone"
    },
    "x": 5,
    "y": 1,
    "z": -1
  },
  {
    "block": {
      "Properties": {
        "waterlogged": "false",
        "shape": "straight",
        "half": "bottom",
        "facing": "east"
      },
      "Name": "minecraft:oak_stairs"
    },
    "x": -5,
    "y": 2,
    "z": -1
  },
  {
    "block": {
      "Name": "minecraft:oak_planks"
    },
    "x": -4,
    "y": 2,
    "z": -1
  },
  {
    "block": {
      "Properties": {
        "axis": "y"
      },
      "Name": "minecraft:oak_log"
    },
    "x": 5,
    "y": 2,
    "z": -1
  },
  {
    "block": {
      "Properties": {
        "waterlogged": "false",
        "shape": "straight",
        "half": "bottom",
        "facing": "east"
      },
      "Name": "minecraft:oak_stairs"
    },
    "x": -4,
    "y": 3,
    "z": -1
  },
  {
    "block": {
      "Name": "minecraft:oak_planks"
    },
    "x": -3,
    "y": 3,
    "z": -1
  },
  {
    "block": {
      "Name": "minecraft:oak_planks"
    },
    "x": -2,
    "y": 3,
    "z": -1
  },
  {
    "block": {
      "Name": "minecraft:oak_planks"
    },
    "x": -1,
    "y": 3,
    "z": -1
  },
  {
    "block": {
      "Name": "minecraft:oak_planks"
    },
    "x": 0,
    "y": 3,
    "z": -1
  },
  {
    "block": {
      "Name": "minecraft:oak_planks"
    },
    "x": 1,
    "y": 3,
    "z": -1
  },
  {
    "block": {
      "Name": "minecraft:oak_planks"
    },
    "x": 2,
    "y": 3,
    "z": -1
  },
  {
    "block": {
      "Name": "minecraft:oak_planks"
    },
    "x": 3,
    "y": 3,
    "z": -1
  },
  {
    "block": {
      "Name": "minecraft:oak_planks"
    },
    "x": 4,
    "y": 3,
    "z": -1
  },
  {
    "block": {
      "Name": "minecraft:oak_planks"
    },
    "x": 5,
    "y": 3,
    "z": -1
  },
  {
    "block": {
      "Name": "minecraft:oak_planks"
    },
    "x": 6,
    "y": 3,
    "z": -1
  },
  {
    "block": {
      "Properties": {
        "waterlogged": "false",
        "shape": "straight",
        "half": "bottom",
        "facing": "east"
      },
      "Name": "minecraft:oak_stairs"
    },
    "x": -3,
    "y": 4,
    "z": -1
  },
  {
    "block": {
      "Name": "minecraft:oak_planks"
    },
    "x": -2,
    "y": 4,
    "z": -1
  },
  {
    "block": {
      "Properties": {
        "waterlogged": "false",
        "shape": "straight",
        "half": "bottom",
        "facing": "south"
      },
      "Name": "minecraft:oak_stairs"
    },
    "x": -1,
    "y": 4,
    "z": -1
  },
  {
    "block": {
      "Properties": {
        "waterlogged": "false",
        "shape": "straight",
        "half": "bottom",
        "facing": "south"
      },
      "Name": "minecraft:oak_stairs"
    },
    "x": 0,
    "y": 4,
    "z": -1
  },
  {
    "block": {
      "Properties": {
        "waterlogged": "false",
        "shape": "straight",
        "half": "bottom",
        "facing": "south"
      },
      "Name": "minecraft:oak_stairs"
    },
    "x": 1,
    "y": 4,
    "z": -1
  },
  {
    "block": {
      "Properties": {
        "waterlogged": "false",
        "shape": "straight",
        "half": "bottom",
        "facing": "south"
      },
      "Name": "minecraft:oak_stairs"
    },
    "x": 2,
    "y": 4,
    "z": -1
  },
  {
    "block": {
      "Properties": {
        "waterlogged": "false",
        "shape": "straight",
        "half": "bottom",
        "facing": "south"
      },
      "Name": "minecraft:oak_stairs"
    },
    "x": 3,
    "y": 4,
    "z": -1
  },
  {
    "block": {
      "Properties": {
        "waterlogged": "false",
        "shape": "straight",
        "half": "bottom",
        "facing": "south"
      },
      "Name": "minecraft:oak_stairs"
    },
    "x": 4,
    "y": 4,
    "z": -1
  },
  {
    "block": {
      "Properties": {
        "waterlogged": "false",
        "shape": "straight",
        "half": "bottom",
        "facing": "south"
      },
      "Name": "minecraft:oak_stairs"
    },
    "x": 5,
    "y": 4,
    "z": -1
  },
  {
    "block": {
      "Properties": {
        "waterlogged": "false",
        "shape": "straight",
        "half": "bottom",
        "facing": "south"
      },
      "Name": "minecraft:oak_stairs"
    },
    "x": 6,
    "y": 4,
    "z": -1
  },
  {
    "block": {
      "Name": "minecraft:dirt"
    },
    "x": -5,
    "y": -3,
    "z": 0
  },
  {
    "block": {
      "Name": "minecraft:dirt"
    },
    "x": -4,
    "y": -3,
    "z": 0
  },
  {
    "block": {
      "Name": "minecraft:dirt"
    },
    "x": -3,
    "y": -3,
    "z": 0
  },
  {
    "block": {
      "Name": "minecraft:dirt"
    },
    "x": -2,
    "y": -3,
    "z": 0
  },
  {
    "block": {
      "Name": "minecraft:dirt"
    },
    "x": -1,
    "y": -3,
    "z": 0
  },
  {
    "block": {
      "Name": "minecraft:dirt"
    },
    "x": 0,
    "y": -3,
    "z": 0
  },
  {
    "block": {
      "Name": "minecraft:dirt"
    },
    "x": 1,
    "y": -3,
    "z": 0
  },
  {
    "block": {
      "Name": "minecraft:dirt"
    },
    "x": 2,
    "y": -3,
    "z": 0
  },
  {
    "block": {
      "Name": "minecraft:dirt"
    },
    "x": 3,
    "y": -3,
    "z": 0
  },
  {
    "block": {
      "Name": "minecraft:dirt"
    },
    "x": 4,
    "y": -3,
    "z": 0
  },
  {
    "block": {
      "Name": "minecraft:dirt"
    },
    "x": 5,
    "y": -3,
    "z": 0
  },
  {
    "block": {
      "Name": "minecraft:cobblestone"
    },
    "x": -5,
    "y": -2,
    "z": 0
  },
  {
    "block": {
      "Name": "minecraft:oak_planks"
    },
    "x": -4,
    "y": -2,
    "z": 0
  },
  {
    "block": {
      "Name": "minecraft:oak_planks"
    },
    "x": -3,
    "y": -2,
    "z": 0
  },
  {
    "block": {
      "Name": "minecraft:oak_planks"
    },
    "x": -2,
    "y": -2,
    "z": 0
  },
  {
    "block": {
      "Name": "minecraft:oak_planks"
    },
    "x": -1,
    "y": -2,
    "z": 0
  },
  {
    "block": {
      "Name": "minecraft:oak_planks"
    },
    "x": 0,
    "y": -2,
    "z": 0
  },
  {
    "block": {
      "Name": "minecraft:oak_planks"
    },
    "x": 1,
    "y": -2,
    "z": 0
  },
  {
    "block": {
      "Name": "minecraft:oak_planks"
    },
    "x": 2,
    "y": -2,
    "z": 0
  },
  {
    "block": {
      "Name": "minecraft:oak_planks"
    },
    "x": 3,
    "y": -2,
    "z": 0
  },
  {
    "block": {
      "Name": "minecraft:oak_planks"
    },
    "x": 4,
    "y": -2,
    "z": 0
  },
  {
    "block": {
      "Name": "minecraft:cobblestone"
    },
    "x": 5,
    "y": -2,
    "z": 0
  },
  {
    "block": {
      "Name": "minecraft:cobblestone"
    },
    "x": -5,
    "y": -1,
    "z": 0
  },
  {
    "block": {
      "Properties": {
        "west": "true",
        "waterlogged": "false",
        "south": "false",
        "north": "false",
        "east": "false"
      },
      "Name": "minecraft:oak_fence"
    },
    "x": -4,
    "y": -1,
    "z": 0
  },
  {
    "block": {
      "Name": "minecraft:cobblestone"
    },
    "x": 5,
    "y": -1,
    "z": 0
  },
  {
    "block": {
      "Properties": {
        "west": "false",
        "waterlogged": "false",
        "south": "true",
        "north": "true",
        "east": "false"
      },
      "Name": "minecraft:glass_pane"
    },
    "x": -5,
    "y": 0,
    "z": 0
  },
  {
    "block": {
      "Properties": {
        "powered": "false"
      },
      "Name": "minecraft:oak_pressure_plate"
    },
    "x": -4,
    "y": 0,
    "z": 0
  },
  {
    "block": {
      "Properties": {
        "facing": "west"
      },
      "Name": "minecraft:wall_torch"
    },
    "x": 4,
    "y": 0,
    "z": 0
  },
  {
    "block": {
      "Name": "minecraft:cobblestone"
    },
    "x": 5,
    "y": 0,
    "z": 0
  },
  {
    "block": {
      "Properties": {
        "facing": "east"
      },
      "Name": "minecraft:wall_torch"
    },
    "x": 6,
    "y": 0,
    "z": 0
  },
  {
    "block": {
      "Properties": {
        "waterlogged": "false",
        "shape": "straight",
        "half": "bottom",
        "facing": "east"
      },
      "Name": "minecraft:oak_stairs"
    },
    "x": -6,
    "y": 1,
    "z": 0
  },
  {
    "block": {
      "Name": "minecraft:oak_planks"
    },
    "x": -5,
    "y": 1,
    "z": 0
  },
  {
    "block": {
      "Name": "minecraft:cobblestone"
    },
    "x": 5,
    "y": 1,
    "z": 0
  },
  {
    "block": {
      "Properties": {
        "waterlogged": "false",
        "shape": "straight",
        "half": "bottom",
        "facing": "east"
      },
      "Name": "minecraft:oak_stairs"
    },
    "x": -5,
    "y": 2,
    "z": 0
  },
  {
    "block": {
      "Name": "minecraft:oak_planks"
    },
    "x": -4,
    "y": 2,
    "z": 0
  },
  {
    "block": {
      "Properties": {
        "west": "false",
        "waterlogged": "false",
        "south": "true",
        "north": "true",
        "east": "false"
      },
      "Name": "minecraft:glass_pane"
    },
    "x": 5,
    "y": 2,
    "z": 0
  },
  {
    "block": {
      "Properties": {
        "waterlogged": "false",
        "shape": "straight",
        "half": "bottom",
        "facing": "east"
      },
      "Name": "minecraft:oak_stairs"
    },
    "x": -4,
    "y": 3,
    "z": 0
  },
  {
    "block": {
      "Name": "minecraft:oak_planks"
    },
    "x": -3,
    "y": 3,
    "z": 0
  },
  {
    "block": {
      "Name": "minecraft:oak_planks"
    },
    "x": -2,
    "y": 3,
    "z": 0
  },
  {
    "block": {
      "Name": "minecraft:cobblestone"
    },
    "x": 5,
    "y": 3,
    "z": 0
  },
  {
    "block": {
      "Properties": {
        "waterlogged": "false",
        "shape": "straight",
        "half": "bottom",
        "facing": "east"
      },
      "Name": "minecraft:oak_stairs"
    },
    "x": -3,
    "y": 4,
    "z": 0
  },
  {
    "block": {
      "Name": "minecraft:oak_planks"
    },
    "x": -2,
    "y": 4,
    "z": 0
  },
  {
    "block": {
      "Name": "minecraft:oak_planks"
    },
    "x": -1,
    "y": 4,
    "z": 0
  },
  {
    "block": {
      "Name": "minecraft:oak_planks"
    },
    "x": 0,
    "y": 4,
    "z": 0
  },
  {
    "block": {
      "Name": "minecraft:oak_planks"
    },
    "x": 1,
    "y": 4,
    "z": 0
  },
  {
    "block": {
      "Name": "minecraft:oak_planks"
    },
    "x": 2,
    "y": 4,
    "z": 0
  },
  {
    "block": {
      "Name": "minecraft:oak_planks"
    },
    "x": 3,
    "y": 4,
    "z": 0
  },
  {
    "block": {
      "Name": "minecraft:oak_planks"
    },
    "x": 4,
    "y": 4,
    "z": 0
  },
  {
    "block": {
      "Name": "minecraft:oak_planks"
    },
    "x": 5,
    "y": 4,
    "z": 0
  },
  {
    "block": {
      "Name": "minecraft:oak_planks"
    },
    "x": 6,
    "y": 4,
    "z": 0
  },
  {
    "block": {
      "Name": "minecraft:dirt"
    },
    "x": -5,
    "y": -3,
    "z": 1
  },
  {
    "block": {
      "Name": "minecraft:dirt"
    },
    "x": -4,
    "y": -3,
    "z": 1
  },
  {
    "block": {
      "Name": "minecraft:dirt"
    },
    "x": -3,
    "y": -3,
    "z": 1
  },
  {
    "block": {
      "Name": "minecraft:dirt"
    },
    "x": -2,
    "y": -3,
    "z": 1
  },
  {
    "block": {
      "Name": "minecraft:dirt"
    },
    "x": -1,
    "y": -3,
    "z": 1
  },
  {
    "block": {
      "Name": "minecraft:dirt"
    },
    "x": 0,
    "y": -3,
    "z": 1
  },
  {
    "block": {
      "Name": "minecraft:dirt"
    },
    "x": 1,
    "y": -3,
    "z": 1
  },
  {
    "block": {
      "Name": "minecraft:dirt"
    },
    "x": 2,
    "y": -3,
    "z": 1
  },
  {
    "block": {
      "Name": "minecraft:dirt"
    },
    "x": 3,
    "y": -3,
    "z": 1
  },
  {
    "block": {
      "Name": "minecraft:dirt"
    },
    "x": 4,
    "y": -3,
    "z": 1
  },
  {
    "block": {
      "Name": "minecraft:dirt"
    },
    "x": 5,
    "y": -3,
    "z": 1
  },
  {
    "block": {
      "Name": "minecraft:cobblestone"
    },
    "x": -5,
    "y": -2,
    "z": 1
  },
  {
    "block": {
      "Name": "minecraft:oak_planks"
    },
    "x": -4,
    "y": -2,
    "z": 1
  },
  {
    "block": {
      "Name": "minecraft:oak_planks"
    },
    "x": -3,
    "y": -2,
    "z": 1
  },
  {
    "block": {
      "Name": "minecraft:oak_planks"
    },
    "x": -2,
    "y": -2,
    "z": 1
  },
  {
    "block": {
      "Name": "minecraft:oak_planks"
    },
    "x": -1,
    "y": -2,
    "z": 1
  },
  {
    "block": {
      "Name": "minecraft:oak_planks"
    },
    "x": 0,
    "y": -2,
    "z": 1
  },
  {
    "block": {
      "Name": "minecraft:oak_planks"
    },
    "x": 1,
    "y": -2,
    "z": 1
  },
  {
    "block": {
      "Name": "minecraft:oak_planks"
    },
    "x": 2,
    "y": -2,
    "z": 1
  },
  {
    "block": {
      "Name": "minecraft:oak_planks"
    },
    "x": 3,
    "y": -2,
    "z": 1
  },
  {
    "block": {
      "Name": "minecraft:oak_planks"
    },
    "x": 4,
    "y": -2,
    "z": 1
  },
  {
    "block": {
      "Name": "minecraft:cobblestone"
    },
    "x": 5,
    "y": -2,
    "z": 1
  },
  {
    "block": {
      "Name": "minecraft:cobblestone"
    },
    "x": -5,
    "y": -1,
    "z": 1
  },
  {
    "block": {
      "Properties": {
        "waterlogged": "false",
        "shape": "straight",
        "half": "bottom",
        "facing": "south"
      },
      "Name": "minecraft:oak_stairs"
    },
    "x": -4,
    "y": -1,
    "z": 1
  },
  {
    "block": {
      "Properties": {
        "part": "foot",
        "occupied": "false",
        "facing": "east"
      },
      "Name": "minecraft:white_bed"
    },
    "x": 3,
    "y": -1,
    "z": 1
  },
  {
    "block": {
      "Properties": {
        "part": "head",
        "occupied": "false",
        "facing": "east"
      },
      "Name": "minecraft:white_bed"
    },
    "x": 4,
    "y": -1,
    "z": 1
  },
  {
    "block": {
      "Name": "minecraft:cobblestone"
    },
    "x": 5,
    "y": -1,
    "z": 1
  },
  {
    "block": {
      "Properties": {
        "axis": "y"
      },
      "Name": "minecraft:oak_log"
    },
    "x": -5,
    "y": 0,
    "z": 1
  },
  {
    "block": {
      "Name": "minecraft:cobblestone"
    },
    "x": 5,
    "y": 0,
    "z": 1
  },
  {
    "block": {
      "Properties": {
        "waterlogged": "false",
        "shape": "straight",
        "half": "bottom",
        "facing": "east"
      },
      "Name": "minecraft:oak_stairs"
    },
    "x": -6,
    "y": 1,
    "z": 1
  },
  {
    "block": {
      "Name": "minecraft:oak_planks"
    },
    "x": -5,
    "y": 1,
    "z": 1
  },
  {
    "block": {
      "Name": "minecraft:cobblestone"
    },
    "x": 5,
    "y": 1,
    "z": 1
  },
  {
    "block": {
      "Properties": {
        "waterlogged": "false",
        "shape": "straight",
        "half": "bottom",
        "facing": "east"
      },
      "Name": "minecraft:oak_stairs"
    },
    "x": -5,
    "y": 2,
    "z": 1
  },
  {
    "block": {
      "Name": "minecraft:oak_planks"
    },
    "x": -4,
    "y": 2,
    "z": 1
  },
  {
    "block": {
      "Properties": {
        "axis": "y"
      },
      "Name": "minecraft:oak_log"
    },
    "x": 5,
    "y": 2,
    "z": 1
  },
  {
    "block": {
      "Properties": {
        "waterlogged": "false",
        "shape": "straight",
        "half": "bottom",
        "facing": "east"
      },
      "Name": "minecraft:oak_stairs"
    },
    "x": -4,
    "y": 3,
    "z": 1
  },
  {
    "block": {
      "Name": "minecraft:oak_planks"
    },
    "x": -3,
    "y": 3,
    "z": 1
  },
  {
    "block": {
      "Name": "minecraft:oak_planks"
    },
    "x": -2,
    "y": 3,
    "z": 1
  },
  {
    "block": {
      "Name": "minecraft:oak_planks"
    },
    "x": -1,
    "y": 3,
    "z": 1
  },
  {
    "block": {
      "Name": "minecraft:oak_planks"
    },
    "x": 0,
    "y": 3,
    "z": 1
  },
  {
    "block": {
      "Name": "minecraft:oak_planks"
    },
    "x": 1,
    "y": 3,
    "z": 1
  },
  {
    "block": {
      "Name": "minecraft:oak_planks"
    },
    "x": 2,
    "y": 3,
    "z": 1
  },
  {
    "block": {
      "Name": "minecraft:oak_planks"
    },
    "x": 3,
    "y": 3,
    "z": 1
  },
  {
    "block": {
      "Name": "minecraft:oak_planks"
    },
    "x": 4,
    "y": 3,
    "z": 1
  },
  {
    "block": {
      "Name": "minecraft:oak_planks"
    },
    "x": 5,
    "y": 3,
    "z": 1
  },
  {
    "block": {
      "Name": "minecraft:oak_planks"
    },
    "x": 6,
    "y": 3,
    "z": 1
  },
  {
    "block": {
      "Properties": {
        "waterlogged": "false",
        "shape": "straight",
        "half": "bottom",
        "facing": "east"
      },
      "Name": "minecraft:oak_stairs"
    },
    "x": -3,
    "y": 4,
    "z": 1
  },
  {
    "block": {
      "Name": "minecraft:oak_planks"
    },
    "x": -2,
    "y": 4,
    "z": 1
  },
  {
    "block": {
      "Properties": {
        "waterlogged": "false",
        "shape": "straight",
        "half": "bottom",
        "facing": "north"
      },
      "Name": "minecraft:oak_stairs"
    },
    "x": -1,
    "y": 4,
    "z": 1
  },
  {
    "block": {
      "Properties": {
        "waterlogged": "false",
        "shape": "straight",
        "half": "bottom",
        "facing": "north"
      },
      "Name": "minecraft:oak_stairs"
    },
    "x": 0,
    "y": 4,
    "z": 1
  },
  {
    "block": {
      "Properties": {
        "waterlogged": "false",
        "shape": "straight",
        "half": "bottom",
        "facing": "north"
      },
      "Name": "minecraft:oak_stairs"
    },
    "x": 1,
    "y": 4,
    "z": 1
  },
  {
    "block": {
      "Properties": {
        "waterlogged": "false",
        "shape": "straight",
        "half": "bottom",
        "facing": "north"
      },
      "Name": "minecraft:oak_stairs"
    },
    "x": 2,
    "y": 4,
    "z": 1
  },
  {
    "block": {
      "Properties": {
        "waterlogged": "false",
        "shape": "straight",
        "half": "bottom",
        "facing": "north"
      },
      "Name": "minecraft:oak_stairs"
    },
    "x": 3,
    "y": 4,
    "z": 1
  },
  {
    "block": {
      "Properties": {
        "waterlogged": "false",
        "shape": "straight",
        "half": "bottom",
        "facing": "north"
      },
      "Name": "minecraft:oak_stairs"
    },
    "x": 4,
    "y": 4,
    "z": 1
  },
  {
    "block": {
      "Properties": {
        "waterlogged": "false",
        "shape": "straight",
        "half": "bottom",
        "facing": "north"
      },
      "Name": "minecraft:oak_stairs"
    },
    "x": 5,
    "y": 4,
    "z": 1
  },
  {
    "block": {
      "Properties": {
        "waterlogged": "false",
        "shape": "straight",
        "half": "bottom",
        "facing": "north"
      },
      "Name": "minecraft:oak_stairs"
    },
    "x": 6,
    "y": 4,
    "z": 1
  },
  {
    "block": {
      "Name": "minecraft:dirt"
    },
    "x": -5,
    "y": -3,
    "z": 2
  },
  {
    "block": {
      "Name": "minecraft:dirt"
    },
    "x": -4,
    "y": -3,
    "z": 2
  },
  {
    "block": {
      "Name": "minecraft:dirt"
    },
    "x": -3,
    "y": -3,
    "z": 2
  },
  {
    "block": {
      "Name": "minecraft:dirt"
    },
    "x": -2,
    "y": -3,
    "z": 2
  },
  {
    "block": {
      "Name": "minecraft:dirt"
    },
    "x": -1,
    "y": -3,
    "z": 2
  },
  {
    "block": {
      "Name": "minecraft:dirt"
    },
    "x": 0,
    "y": -3,
    "z": 2
  },
  {
    "block": {
      "Name": "minecraft:dirt"
    },
    "x": 1,
    "y": -3,
    "z": 2
  },
  {
    "block": {
      "Name": "minecraft:dirt"
    },
    "x": 2,
    "y": -3,
    "z": 2
  },
  {
    "block": {
      "Name": "minecraft:dirt"
    },
    "x": 3,
    "y": -3,
    "z": 2
  },
  {
    "block": {
      "Name": "minecraft:dirt"
    },
    "x": 4,
    "y": -3,
    "z": 2
  },
  {
    "block": {
      "Name": "minecraft:dirt"
    },
    "x": 5,
    "y": -3,
    "z": 2
  },
  {
    "block": {
      "Name": "minecraft:cobblestone"
    },
    "x": -5,
    "y": -2,
    "z": 2
  },
  {
    "block": {
      "Name": "minecraft:oak_planks"
    },
    "x": -4,
    "y": -2,
    "z": 2
  },
  {
    "block": {
      "Name": "minecraft:oak_planks"
    },
    "x": -3,
    "y": -2,
    "z": 2
  },
  {
    "block": {
      "Name": "minecraft:oak_planks"
    },
    "x": -2,
    "y": -2,
    "z": 2
  },
  {
    "block": {
      "Name": "minecraft:oak_planks"
    },
    "x": -1,
    "y": -2,
    "z": 2
  },
  {
    "block": {
      "Name": "minecraft:oak_planks"
    },
    "x": 0,
    "y": -2,
    "z": 2
  },
  {
    "block": {
      "Name": "minecraft:oak_planks"
    },
    "x": 1,
    "y": -2,
    "z": 2
  },
  {
    "block": {
      "Name": "minecraft:oak_planks"
    },
    "x": 2,
    "y": -2,
    "z": 2
  },
  {
    "block": {
      "Name": "minecraft:oak_planks"
    },
    "x": 3,
    "y": -2,
    "z": 2
  },
  {
    "block": {
      "Name": "minecraft:oak_planks"
    },
    "x": 4,
    "y": -2,
    "z": 2
  },
  {
    "block": {
      "Name": "minecraft:cobblestone"
    },
    "x": 5,
    "y": -2,
    "z": 2
  },
  {
    "block": {
      "Name": "minecraft:cobblestone"
    },
    "x": -5,
    "y": -1,
    "z": 2
  },
  {
    "block": {
      "Properties": {
        "west": "false",
        "waterlogged": "false",
        "south": "true",
        "north": "false",
        "east": "false"
      },
      "Name": "minecraft:oak_fence"
    },
    "x": 0,
    "y": -1,
    "z": 2
  },
  {
    "block": {
      "Properties": {
        "west": "false",
        "waterlogged": "false",
        "south": "true",
        "north": "false",
        "east": "true"
      },
      "Name": "minecraft:oak_fence"
    },
    "x": 4,
    "y": -1,
    "z": 2
  },
  {
    "block": {
      "Name": "minecraft:cobblestone"
    },
    "x": 5,
    "y": -1,
    "z": 2
  },
  {
    "block": {
      "Properties": {
        "axis": "z"
      },
      "Name": "minecraft:stripped_oak_log"
    },
    "x": -5,
    "y": 0,
    "z": 2
  },
  {
    "block": {
      "Properties": {
        "powered": "false"
      },
      "Name": "minecraft:oak_pressure_plate"
    },
    "x": 0,
    "y": 0,
    "z": 2
  },
  {
    "block": {
      "Properties": {
        "powered": "false"
      },
      "Name": "minecraft:oak_pressure_plate"
    },
    "x": 4,
    "y": 0,
    "z": 2
  },
  {
    "block": {
      "Name": "minecraft:cobblestone"
    },
    "x": 5,
    "y": 0,
    "z": 2
  },
  {
    "block": {
      "Properties": {
        "waterlogged": "false",
        "shape": "straight",
        "half": "bottom",
        "facing": "east"
      },
      "Name": "minecraft:oak_stairs"
    },
    "x": -6,
    "y": 1,
    "z": 2
  },
  {
    "block": {
      "Name": "minecraft:oak_planks"
    },
    "x": -5,
    "y": 1,
    "z": 2
  },
  {
    "block": {
      "Properties": {
        "facing": "north"
      },
      "Name": "minecraft:wall_torch"
    },
    "x": 0,
    "y": 1,
    "z": 2
  },
  {
    "block": {
      "Name": "minecraft:cobblestone"
    },
    "x": 5,
    "y": 1,
    "z": 2
  },
  {
    "block": {
      "Properties": {
        "waterlogged": "false",
        "shape": "straight",
        "half": "bottom",
        "facing": "east"
      },
      "Name": "minecraft:oak_stairs"
    },
    "x": -5,
    "y": 2,
    "z": 2
  },
  {
    "block": {
      "Name": "minecraft:oak_planks"
    },
    "x": -4,
    "y": 2,
    "z": 2
  },
  {
    "block": {
      "Name": "minecraft:oak_planks"
    },
    "x": -3,
    "y": 2,
    "z": 2
  },
  {
    "block": {
      "Name": "minecraft:oak_planks"
    },
    "x": -2,
    "y": 2,
    "z": 2
  },
  {
    "block": {
      "Name": "minecraft:oak_planks"
    },
    "x": -1,
    "y": 2,
    "z": 2
  },
  {
    "block": {
      "Name": "minecraft:oak_planks"
    },
    "x": 0,
    "y": 2,
    "z": 2
  },
  {
    "block": {
      "Name": "minecraft:oak_planks"
    },
    "x": 1,
    "y": 2,
    "z": 2
  },
  {
    "block": {
      "Name": "minecraft:oak_planks"
    },
    "x": 2,
    "y": 2,
    "z": 2
  },
  {
    "block": {
      "Name": "minecraft:oak_planks"
    },
    "x": 3,
    "y": 2,
    "z": 2
  },
  {
    "block": {
      "Name": "minecraft:oak_planks"
    },
    "x": 4,
    "y": 2,
    "z": 2
  },
  {
    "block": {
      "Name": "minecraft:oak_planks"
    },
    "x": 5,
    "y": 2,
    "z": 2
  },
  {
    "block": {
      "Name": "minecraft:oak_planks"
    },
    "x": 6,
    "y": 2,
    "z": 2
  },
  {
    "block": {
      "Properties": {
        "waterlogged": "false",
        "shape": "straight",
        "half": "bottom",
        "facing": "east"
      },
      "Name": "minecraft:oak_stairs"
    },
    "x": -4,
    "y": 3,
    "z": 2
  },
  {
    "block": {
      "Name": "minecraft:oak_planks"
    },
    "x": -3,
    "y": 3,
    "z": 2
  },
  {
    "block": {
      "Name": "minecraft:oak_planks"
    },
    "x": -2,
    "y": 3,
    "z": 2
  },
  {
    "block": {
      "Name": "minecraft:oak_planks"
    },
    "x": -1,
    "y": 3,
    "z": 2
  },
  {
    "block": {
      "Properties": {
        "waterlogged": "false",
        "shape": "straight",
        "half": "bottom",
        "facing": "north"
      },
      "Name": "minecraft:oak_stairs"
    },
    "x": 0,
    "y": 3,
    "z": 2
  },
  {
    "block": {
      "Properties": {
        "waterlogged": "false",
        "shape": "straight",
        "half": "bottom",
        "facing": "north"
      },
      "Name": "minecraft:oak_stairs"
    },
    "x": 1,
    "y": 3,
    "z": 2
  },
  {
    "block": {
      "Properties": {
        "waterlogged": "false",
        "shape": "straight",
        "half": "bottom",
        "facing": "north"
      },
      "Name": "minecraft:oak_stairs"
    },
    "x": 2,
    "y": 3,
    "z": 2
  },
  {
    "block": {
      "Properties": {
        "waterlogged": "false",
        "shape": "straight",
        "half": "bottom",
        "facing": "north"
      },
      "Name": "minecraft:oak_stairs"
    },
    "x": 3,
    "y": 3,
    "z": 2
  },
  {
    "block": {
      "Properties": {
        "waterlogged": "false",
        "shape": "straight",
        "half": "bottom",
        "facing": "north"
      },
      "Name": "minecraft:oak_stairs"
    },
    "x": 4,
    "y": 3,
    "z": 2
  },
  {
    "block": {
      "Properties": {
        "waterlogged": "false",
        "shape": "straight",
        "half": "bottom",
        "facing": "north"
      },
      "Name": "minecraft:oak_stairs"
    },
    "x": 5,
    "y": 3,
    "z": 2
  },
  {
    "block": {
      "Properties": {
        "waterlogged": "false",
        "shape": "straight",
        "half": "bottom",
        "facing": "north"
      },
      "Name": "minecraft:oak_stairs"
    },
    "x": 6,
    "y": 3,
    "z": 2
  },
  {
    "block": {
      "Properties": {
        "waterlogged": "false",
        "shape": "straight",
        "half": "bottom",
        "facing": "east"
      },
      "Name": "minecraft:oak_stairs"
    },
    "x": -3,
    "y": 4,
    "z": 2
  },
  {
    "block": {
      "Properties": {
        "waterlogged": "false",
        "shape": "straight",
        "half": "bottom",
        "facing": "west"
      },
      "Name": "minecraft:oak_stairs"
    },
    "x": -2,
    "y": 4,
    "z": 2
  },
  {
    "block": {
      "Name": "minecraft:dirt"
    },
    "x": -5,
    "y": -3,
    "z": 3
  },
  {
    "block": {
      "Name": "minecraft:dirt"
    },
    "x": -4,
    "y": -3,
    "z": 3
  },
  {
    "block": {
      "Name": "minecraft:dirt"
    },
    "x": -3,
    "y": -3,
    "z": 3
  },
  {
    "block": {
      "Name": "minecraft:dirt"
    },
    "x": -2,
    "y": -3,
    "z": 3
  },
  {
    "block": {
      "Name": "minecraft:dirt"
    },
    "x": -1,
    "y": -3,
    "z": 3
  },
  {
    "block": {
      "Name": "minecraft:dirt"
    },
    "x": 0,
    "y": -3,
    "z": 3
  },
  {
    "block": {
      "Name": "minecraft:dirt"
    },
    "x": 1,
    "y": -3,
    "z": 3
  },
  {
    "block": {
      "Name": "minecraft:dirt"
    },
    "x": 2,
    "y": -3,
    "z": 3
  },
  {
    "block": {
      "Name": "minecraft:dirt"
    },
    "x": 3,
    "y": -3,
    "z": 3
  },
  {
    "block": {
      "Name": "minecraft:dirt"
    },
    "x": 4,
    "y": -3,
    "z": 3
  },
  {
    "block": {
      "Name": "minecraft:dirt"
    },
    "x": 5,
    "y": -3,
    "z": 3
  },
  {
    "block": {
      "Properties": {
        "axis": "y"
      },
      "Name": "minecraft:stripped_oak_log"
    },
    "x": -5,
    "y": -2,
    "z": 3
  },
  {
    "block": {
      "Name": "minecraft:cobblestone"
    },
    "x": -4,
    "y": -2,
    "z": 3
  },
  {
    "block": {
      "Name": "minecraft:cobblestone"
    },
    "x": -3,
    "y": -2,
    "z": 3
  },
  {
    "block": {
      "Name": "minecraft:cobblestone"
    },
    "x": -2,
    "y": -2,
    "z": 3
  },
  {
    "block": {
      "Name": "minecraft:cobblestone"
    },
    "x": -1,
    "y": -2,
    "z": 3
  },
  {
    "block": {
      "Name": "minecraft:cobblestone"
    },
    "x": 0,
    "y": -2,
    "z": 3
  },
  {
    "block": {
      "Name": "minecraft:cobblestone"
    },
    "x": 1,
    "y": -2,
    "z": 3
  },
  {
    "block": {
      "Name": "minecraft:cobblestone"
    },
    "x": 2,
    "y": -2,
    "z": 3
  },
  {
    "block": {
      "Name": "minecraft:cobblestone"
    },
    "x": 3,
    "y": -2,
    "z": 3
  },
  {
    "block": {
      "Name": "minecraft:cobblestone"
    },
    "x": 4,
    "y": -2,
    "z": 3
  },
  {
    "block": {
      "Properties": {
        "axis": "y"
      },
      "Name": "minecraft:stripped_oak_log"
    },
    "x": 5,
    "y": -2,
    "z": 3
  },
  {
    "block": {
      "Properties": {
        "axis": "y"
      },
      "Name": "minecraft:stripped_oak_log"
    },
    "x": -5,
    "y": -1,
    "z": 3
  },
  {
    "block": {
      "Name": "minecraft:cobblestone"
    },
    "x": -4,
    "y": -1,
    "z": 3
  },
  {
    "block": {
      "Name": "minecraft:cobblestone"
    },
    "x": -3,
    "y": -1,
    "z": 3
  },
  {
    "block": {
      "Name": "minecraft:cobblestone"
    },
    "x": -2,
    "y": -1,
    "z": 3
  },
  {
    "block": {
      "Name": "minecraft:cobblestone"
    },
    "x": -1,
    "y": -1,
    "z": 3
  },
  {
    "block": {
      "Name": "minecraft:cobblestone"
    },
    "x": 0,
    "y": -1,
    "z": 3
  },
  {
    "block": {
      "Name": "minecraft:cobblestone"
    },
    "x": 1,
    "y": -1,
    "z": 3
  },
  {
    "block": {
      "Name": "minecraft:cobblestone"
    },
    "x": 2,
    "y": -1,
    "z": 3
  },
  {
    "block": {
      "Name": "minecraft:cobblestone"
    },
    "x": 3,
    "y": -1,
    "z": 3
  },
  {
    "block": {
      "Name": "minecraft:cobblestone"
    },
    "x": 4,
    "y": -1,
    "z": 3
  },
  {
    "block": {
      "Properties": {
        "axis": "y"
      },
      "Name": "minecraft:stripped_oak_log"
    },
    "x": 5,
    "y": -1,
    "z": 3
  },
  {
    "block": {
      "Properties": {
        "axis": "y"
      },
      "Name": "minecraft:stripped_oak_log"
    },
    "x": -5,
    "y": 0,
    "z": 3
  },
  {
    "block": {
      "Properties": {
        "axis": "y"
      },
      "Name": "minecraft:oak_log"
    },
    "x": -4,
    "y": 0,
    "z": 3
  },
  {
    "block": {
      "Properties": {
        "west": "true",
        "waterlogged": "false",
        "south": "false",
        "north": "false",
        "east": "true"
      },
      "Name": "minecraft:glass_pane"
    },
    "x": -3,
    "y": 0,
    "z": 3
  },
  {
    "block": {
      "Properties": {
        "west": "true",
        "waterlogged": "false",
        "south": "false",
        "north": "false",
        "east": "true"
      },
      "Name": "minecraft:glass_pane"
    },
    "x": -2,
    "y": 0,
    "z": 3
  },
  {
    "block": {
      "Properties": {
        "axis": "y"
      },
      "Name": "minecraft:oak_log"
    },
    "x": -1,
    "y": 0,
    "z": 3
  },
  {
    "block": {
      "Properties": {
        "axis": "x"
      },
      "Name": "minecraft:stripped_oak_log"
    },
    "x": 0,
    "y": 0,
    "z": 3
  },
  {
    "block": {
      "Properties": {
        "axis": "y"
      },
      "Name": "minecraft:oak_log"
    },
    "x": 1,
    "y": 0,
    "z": 3
  },
  {
    "block": {
      "Properties": {
        "west": "true",
        "waterlogged": "false",
        "south": "false",
        "north": "false",
        "east": "true"
      },
      "Name": "minecraft:glass_pane"
    },
    "x": 2,
    "y": 0,
    "z": 3
  },
  {
    "block": {
      "Properties": {
        "west": "true",
        "waterlogged": "false",
        "south": "false",
        "north": "false",
        "east": "true"
      },
      "Name": "minecraft:glass_pane"
    },
    "x": 3,
    "y": 0,
    "z": 3
  },
  {
    "block": {
      "Properties": {
        "axis": "y"
      },
      "Name": "minecraft:oak_log"
    },
    "x": 4,
    "y": 0,
    "z": 3
  },
  {
    "block": {
      "Properties": {
        "axis": "y"
      },
      "Name": "minecraft:stripped_oak_log"
    },
    "x": 5,
    "y": 0,
    "z": 3
  },
  {
    "block": {
      "Properties": {
        "waterlogged": "false",
        "shape": "straight",
        "half": "bottom",
        "facing": "east"
      },
      "Name": "minecraft:oak_stairs"
    },
    "x": -6,
    "y": 1,
    "z": 3
  },
  {
    "block": {
      "Properties": {
        "axis": "y"
      },
      "Name": "minecraft:stripped_oak_log"
    },
    "x": -5,
    "y": 1,
    "z": 3
  },
  {
    "block": {
      "Name": "minecraft:cobblestone"
    },
    "x": -4,
    "y": 1,
    "z": 3
  },
  {
    "block": {
      "Name": "minecraft:cobblestone"
    },
    "x": -3,
    "y": 1,
    "z": 3
  },
  {
    "block": {
      "Name": "minecraft:cobblestone"
    },
    "x": -2,
    "y": 1,
    "z": 3
  },
  {
    "block": {
      "Name": "minecraft:cobblestone"
    },
    "x": -1,
    "y": 1,
    "z": 3
  },
  {
    "block": {
      "Name": "minecraft:cobblestone"
    },
    "x": 0,
    "y": 1,
    "z": 3
  },
  {
    "block": {
      "Name": "minecraft:cobblestone"
    },
    "x": 1,
    "y": 1,
    "z": 3
  },
  {
    "block": {
      "Name": "minecraft:cobblestone"
    },
    "x": 2,
    "y": 1,
    "z": 3
  },
  {
    "block": {
      "Name": "minecraft:cobblestone"
    },
    "x": 3,
    "y": 1,
    "z": 3
  },
  {
    "block": {
      "Name": "minecraft:cobblestone"
    },
    "x": 4,
    "y": 1,
    "z": 3
  },
  {
    "block": {
      "Properties": {
        "axis": "y"
      },
      "Name": "minecraft:stripped_oak_log"
    },
    "x": 5,
    "y": 1,
    "z": 3
  },
  {
    "block": {
      "Name": "minecraft:oak_planks"
    },
    "x": 6,
    "y": 1,
    "z": 3
  },
  {
    "block": {
      "Properties": {
        "waterlogged": "false",
        "shape": "straight",
        "half": "bottom",
        "facing": "east"
      },
      "Name": "minecraft:oak_stairs"
    },
    "x": -5,
    "y": 2,
    "z": 3
  },
  {
    "block": {
      "Name": "minecraft:oak_planks"
    },
    "x": -4,
    "y": 2,
    "z": 3
  },
  {
    "block": {
      "Name": "minecraft:cobblestone"
    },
    "x": -3,
    "y": 2,
    "z": 3
  },
  {
    "block": {
      "Name": "minecraft:cobblestone"
    },
    "x": -2,
    "y": 2,
    "z": 3
  },
  {
    "block": {
      "Name": "minecraft:oak_planks"
    },
    "x": -1,
    "y": 2,
    "z": 3
  },
  {
    "block": {
      "Properties": {
        "waterlogged": "false",
        "shape": "inner_left",
        "half": "bottom",
        "facing": "north"
      },
      "Name": "minecraft:oak_stairs"
    },
    "x": 0,
    "y": 2,
    "z": 3
  },
  {
    "block": {
      "Properties": {
        "waterlogged": "false",
        "shape": "straight",
        "half": "bottom",
        "facing": "north"
      },
      "Name": "minecraft:oak_stairs"
    },
    "x": 1,
    "y": 2,
    "z": 3
  },
  {
    "block": {
      "Properties": {
        "waterlogged": "false",
        "shape": "straight",
        "half": "bottom",
        "facing": "north"
      },
      "Name": "minecraft:oak_stairs"
    },
    "x": 2,
    "y": 2,
    "z": 3
  },
  {
    "block": {
      "Properties": {
        "waterlogged": "false",
        "shape": "straight",
        "half": "bottom",
        "facing": "north"
      },
      "Name": "minecraft:oak_stairs"
    },
    "x": 3,
    "y": 2,
    "z": 3
  },
  {
    "block": {
      "Properties": {
        "waterlogged": "false",
        "shape": "straight",
        "half": "bottom",
        "facing": "north"
      },
      "Name": "minecraft:oak_stairs"
    },
    "x": 4,
    "y": 2,
    "z": 3
  },
  {
    "block": {
      "Properties": {
        "waterlogged": "false",
        "shape": "straight",
        "half": "bottom",
        "facing": "north"
      },
      "Name": "minecraft:oak_stairs"
    },
    "x": 5,
    "y": 2,
    "z": 3
  },
  {
    "block": {
      "Properties": {
        "waterlogged": "false",
        "shape": "straight",
        "half": "bottom",
        "facing": "north"
      },
      "Name": "minecraft:oak_stairs"
    },
    "x": 6,
    "y": 2,
    "z": 3
  },
  {
    "block": {
      "Properties": {
        "waterlogged": "false",
        "shape": "straight",
        "half": "bottom",
        "facing": "east"
      },
      "Name": "minecraft:oak_stairs"
    },
    "x": -4,
    "y": 3,
    "z": 3
  },
  {
    "block": {
      "Name": "minecraft:oak_planks"
    },
    "x": -3,
    "y": 3,
    "z": 3
  },
  {
    "block": {
      "Name": "minecraft:oak_planks"
    },
    "x": -2,
    "y": 3,
    "z": 3
  },
  {
    "block": {
      "Properties": {
        "waterlogged": "false",
        "shape": "straight",
        "half": "bottom",
        "facing": "west"
      },
      "Name": "minecraft:oak_stairs"
    },
    "x": -1,
    "y": 3,
    "z": 3
  },
  {
    "block": {
      "Properties": {
        "waterlogged": "false",
        "shape": "straight",
        "half": "bottom",
        "facing": "east"
      },
      "Name": "minecraft:oak_stairs"
    },
    "x": -3,
    "y": 4,
    "z": 3
  },
  {
    "block": {
      "Properties": {
        "waterlogged": "false",
        "shape": "straight",
        "half": "bottom",
        "facing": "west"
      },
      "Name": "minecraft:oak_stairs"
    },
    "x": -2,
    "y": 4,
    "z": 3
  },
  {
    "block": {
      "Properties": {
        "waterlogged": "false",
        "shape": "straight",
        "half": "bottom",
        "facing": "east"
      },
      "Name": "minecraft:oak_stairs"
    },
    "x": -6,
    "y": 1,
    "z": 4
  },
  {
    "block": {
      "Name": "minecraft:oak_planks"
    },
    "x": -5,
    "y": 1,
    "z": 4
  },
  {
    "block": {
      "Name": "minecraft:oak_planks"
    },
    "x": 0,
    "y": 1,
    "z": 4
  },
  {
    "block": {
      "Properties": {
        "waterlogged": "false",
        "shape": "inner_right",
        "half": "bottom",
        "facing": "west"
      },
      "Name": "minecraft:oak_stairs"
    },
    "x": 1,
    "y": 1,
    "z": 4
  },
  {
    "block": {
      "Properties": {
        "waterlogged": "false",
        "shape": "straight",
        "half": "bottom",
        "facing": "north"
      },
      "Name": "minecraft:oak_stairs"
    },
    "x": 2,
    "y": 1,
    "z": 4
  },
  {
    "block": {
      "Properties": {
        "waterlogged": "false",
        "shape": "straight",
        "half": "bottom",
        "facing": "north"
      },
      "Name": "minecraft:oak_stairs"
    },
    "x": 3,
    "y": 1,
    "z": 4
  },
  {
    "block": {
      "Properties": {
        "waterlogged": "false",
        "shape": "straight",
        "half": "bottom",
        "facing": "north"
      },
      "Name": "minecraft:oak_stairs"
    },
    "x": 4,
    "y": 1,
    "z": 4
  },
  {
    "block": {
      "Properties": {
        "waterlogged": "false",
        "shape": "straight",
        "half": "bottom",
        "facing": "north"
      },
      "Name": "minecraft:oak_stairs"
    },
    "x": 5,
    "y": 1,
    "z": 4
  },
  {
    "block": {
      "Properties": {
        "waterlogged": "false",
        "shape": "straight",
        "half": "bottom",
        "facing": "north"
      },
      "Name": "minecraft:oak_stairs"
    },
    "x": 6,
    "y": 1,
    "z": 4
  },
  {
    "block": {
      "Properties": {
        "waterlogged": "false",
        "shape": "straight",
        "half": "bottom",
        "facing": "east"
      },
      "Name": "minecraft:oak_stairs"
    },
    "x": -5,
    "y": 2,
    "z": 4
  },
  {
    "block": {
      "Name": "minecraft:oak_planks"
    },
    "x": -4,
    "y": 2,
    "z": 4
  },
  {
    "block": {
      "Name": "minecraft:oak_planks"
    },
    "x": -1,
    "y": 2,
    "z": 4
  },
  {
    "block": {
      "Properties": {
        "waterlogged": "false",
        "shape": "straight",
        "half": "bottom",
        "facing": "west"
      },
      "Name": "minecraft:oak_stairs"
    },
    "x": 0,
    "y": 2,
    "z": 4
  },
  {
    "block": {
      "Properties": {
        "waterlogged": "false",
        "shape": "straight",
        "half": "bottom",
        "facing": "east"
      },
      "Name": "minecraft:oak_stairs"
    },
    "x": -4,
    "y": 3,
    "z": 4
  },
  {
    "block": {
      "Name": "minecraft:oak_planks"
    },
    "x": -3,
    "y": 3,
    "z": 4
  },
  {
    "block": {
      "Name": "minecraft:oak_planks"
    },
    "x": -2,
    "y": 3,
    "z": 4
  },
  {
    "block": {
      "Properties": {
        "waterlogged": "false",
        "shape": "straight",
        "half": "bottom",
        "facing": "west"
      },
      "Name": "minecraft:oak_stairs"
    },
    "x": -1,
    "y": 3,
    "z": 4
  },
  {
    "block": {
      "Properties": {
        "waterlogged": "false",
        "shape": "straight",
        "half": "bottom",
        "facing": "east"
      },
      "Name": "minecraft:oak_stairs"
    },
    "x": -3,
    "y": 4,
    "z": 4
  },
  {
    "block": {
      "Properties": {
        "waterlogged": "false",
        "shape": "straight",
        "half": "bottom",
        "facing": "west"
      },
      "Name": "minecraft:oak_stairs"
    },
    "x": -2,
    "y": 4,
    "z": 4
  }
]