{
	"credit": "Made with Blockbench",
	"textures": {
		"0": "tardis:block/ars/glowy",
		"1": "tardis:block/ars/metal",
		"particle": "tardis:block/ars/glowy"
	},
	"elements": [
		{
			"name": "Collar Ring",
			"from": [5.75, 10, 5.75],
			"to": [10.25, 11, 10.25],
			"faces": {
				"north": {"uv": [2, 2, 4, 2.5], "texture": "#1"},
				"east": {"uv": [0, 2, 2, 2.5], "texture": "#1"},
				"south": {"uv": [6, 2, 8, 2.5], "texture": "#1"},
				"west": {"uv": [4, 2, 6, 2.5], "texture": "#1"},
				"up": {"uv": [4, 2, 2, 0], "texture": "#1"},
				"down": {"uv": [6, 0, 4, 2], "texture": "#1"}
			}
		},
		{
			"name": "Collar Ring Small",
			"from": [6.25, 11, 6.25],
			"to": [9.75, 11.25, 9.75],
			"faces": {
				"north": {"uv": [9.5, 1.5, 11, 2], "texture": "#1"},
				"east": {"uv": [8, 1.5, 9.5, 2], "texture": "#1"},
				"south": {"uv": [12.5, 1.5, 14, 2], "texture": "#1"},
				"west": {"uv": [11, 1.5, 12.5, 2], "texture": "#1"},
				"up": {"uv": [11, 1.5, 9.5, 0], "texture": "#1"},
				"down": {"uv": [12.5, 0, 11, 1.5], "texture": "#1"}
			}
		},
		{
			"name": "Collar Ridge Top",
			"from": [7, 15.25, 7],
			"to": [9, 15.5, 9],
			"faces": {
				"north": {"uv": [1, 6, 2, 6.5], "texture": "#1"},
				"east": {"uv": [0, 6, 1, 6.5], "texture": "#1"},
				"south": {"uv": [3, 6, 4, 6.5], "texture": "#1"},
				"west": {"uv": [2, 6, 3, 6.5], "texture": "#1"},
				"up": {"uv": [2, 6, 1, 5], "texture": "#1"},
				"down": {"uv": [3, 5, 2, 6], "texture": "#1"}
			}
		},
		{
			"name": "Collar Tab North",
			"from": [7.25, 8.5, 3.15],
			"to": [8.75, 9.5, 3.65],
			"rotation": {"angle": 22.5, "axis": "x", "origin": [8.5, 3.5, 7.5]},
			"faces": {
				"north": {"uv": [0.5, 9.5, 1, 10], "texture": "#1"},
				"east": {"uv": [0, 9.5, 0.5, 10], "texture": "#1"},
				"south": {"uv": [1.5, 9.5, 2, 10], "texture": "#1"},
				"west": {"uv": [1, 9.5, 1.5, 10], "texture": "#1"},
				"up": {"uv": [1, 9.5, 0.5, 9], "rotation": 270, "texture": "#1"},
				"down": {"uv": [1.5, 9, 1, 9.5], "rotation": 90, "texture": "#1"}
			}
		},
		{
			"name": "Collar Tab South",
			"from": [7.25, 8.15, 12.25],
			"to": [8.75, 9.15, 12.75],
			"rotation": {"angle": -22.5, "axis": "x", "origin": [8.5, 3.5, 7.5]},
			"faces": {
				"north": {"uv": [6.5, 7.5, 7, 8], "texture": "#1"},
				"east": {"uv": [6, 7.5, 6.5, 8], "texture": "#1"},
				"south": {"uv": [7.5, 7.5, 8, 8], "texture": "#1"},
				"west": {"uv": [7, 7.5, 7.5, 8], "texture": "#1"},
				"up": {"uv": [7, 7.5, 6.5, 7], "rotation": 270, "texture": "#1"},
				"down": {"uv": [7.5, 7, 7, 7.5], "rotation": 90, "texture": "#1"}
			}
		},
		{
			"name": "Collar Tab East",
			"from": [12.35, 8.5, 7.25],
			"to": [12.85, 9.5, 8.75],
			"rotation": {"angle": 22.5, "axis": "z", "origin": [8.5, 3.5, 7.5]},
			"faces": {
				"north": {"uv": [4.5, 8.5, 5, 9], "texture": "#1"},
				"east": {"uv": [4, 8.5, 4.5, 9], "texture": "#1"},
				"south": {"uv": [5.5, 8.5, 6, 9], "texture": "#1"},
				"west": {"uv": [5, 8.5, 5.5, 9], "texture": "#1"},
				"up": {"uv": [5, 8.5, 4.5, 8], "texture": "#1"},
				"down": {"uv": [5.5, 8, 5, 8.5], "texture": "#1"}
			}
		},
		{
			"name": "Collar Tab West",
			"from": [3.25, 8.1, 7.26],
			"to": [3.75, 9.1, 8.76],
			"rotation": {"angle": -22.5, "axis": "z", "origin": [8.5, 3.5, 7.5]},
			"faces": {
				"north": {"uv": [4.5, 7.5, 5, 8], "texture": "#1"},
				"east": {"uv": [4, 7.5, 4.5, 8], "texture": "#1"},
				"south": {"uv": [5.5, 7.5, 6, 8], "texture": "#1"},
				"west": {"uv": [5, 7.5, 5.5, 8], "texture": "#1"},
				"up": {"uv": [5, 7.5, 4.5, 7], "texture": "#1"},
				"down": {"uv": [5.5, 7, 5, 7.5], "texture": "#1"}
			}
		},
		{
			"name": "Collar slope North",
			"from": [7.5, 10.15, 6.15],
			"to": [8.5, 13.15, 7.15],
			"rotation": {"angle": 22.5, "axis": "x", "origin": [8.025, 11.5, 7.875]},
			"faces": {
				"north": {"uv": [0.5, 7.5, 1, 9], "texture": "#1"},
				"east": {"uv": [0, 7.5, 0.5, 9], "texture": "#1"},
				"south": {"uv": [1.5, 7.5, 2, 9], "texture": "#1"},
				"west": {"uv": [1, 7.5, 1.5, 9], "texture": "#1"},
				"up": {"uv": [1, 7.5, 0.5, 7], "rotation": 270, "texture": "#1"},
				"down": {"uv": [1.5, 7, 1, 7.5], "rotation": 90, "texture": "#1"}
			}
		},
		{
			"name": "Collar slope South",
			"from": [7.5, 10.1, 8.85],
			"to": [8.5, 13.1, 9.85],
			"rotation": {"angle": -22.5, "axis": "x", "origin": [8.025, 11.5, 7.875]},
			"faces": {
				"north": {"uv": [4.5, 5.5, 5, 7], "texture": "#1"},
				"east": {"uv": [4, 5.5, 4.5, 7], "texture": "#1"},
				"south": {"uv": [5.5, 5.5, 6, 7], "texture": "#1"},
				"west": {"uv": [5, 5.5, 5.5, 7], "texture": "#1"},
				"up": {"uv": [5, 5.5, 4.5, 5], "rotation": 270, "texture": "#1"},
				"down": {"uv": [5.5, 5, 5, 5.5], "rotation": 90, "texture": "#1"}
			}
		},
		{
			"name": "Collar slope East",
			"from": [8.85, 10.1, 7.5],
			"to": [9.85, 13.1, 8.5],
			"rotation": {"angle": 22.5, "axis": "z", "origin": [8.025, 11.5, 7.875]},
			"faces": {
				"north": {"uv": [6, 5.5, 6.5, 7], "texture": "#1"},
				"east": {"uv": [6, 5.5, 6.5, 7], "texture": "#1"},
				"south": {"uv": [6, 5.5, 6.5, 7], "texture": "#1"},
				"west": {"uv": [6, 5.5, 6.5, 7], "texture": "#1"},
				"up": {"uv": [6, 5.5, 6.5, 7], "texture": "#1"},
				"down": {"uv": [6, 5, 6.5, 6.5], "texture": "#1"}
			}
		},
		{
			"name": "Collar slope West",
			"from": [6.15, 10.1, 7.5],
			"to": [7.15, 13.1, 8.5],
			"rotation": {"angle": -22.5, "axis": "z", "origin": [8.025, 11.5, 7.875]},
			"faces": {
				"north": {"uv": [8.5, 5.5, 9, 7], "texture": "#1"},
				"east": {"uv": [8, 5.5, 8.5, 7], "rotation": 180, "texture": "#1"},
				"south": {"uv": [9.5, 5.5, 10, 7], "texture": "#1"},
				"west": {"uv": [9, 5.5, 9.5, 7], "rotation": 180, "texture": "#1"},
				"up": {"uv": [9, 5.5, 8.5, 5], "rotation": 90, "texture": "#1"},
				"down": {"uv": [9.5, 5, 9, 5.5], "rotation": 270, "texture": "#1"}
			}
		},
		{
			"name": "Collar Post",
			"from": [6.75, 10.75, 6.75],
			"to": [9.25, 14, 9.25],
			"faces": {
				"north": {"uv": [1, 3.5, 2, 5], "texture": "#1"},
				"east": {"uv": [0, 3.5, 1, 5], "texture": "#1"},
				"south": {"uv": [3, 3.5, 4, 5], "texture": "#1"},
				"west": {"uv": [2, 3.5, 3, 5], "texture": "#1"},
				"up": {"uv": [2, 3.5, 1, 2.5], "texture": "#1"},
				"down": {"uv": [3, 2.5, 2, 3.5], "texture": "#1"}
			}
		},
		{
			"name": "Collar Connection",
			"from": [7.25, 13.5, 7.25],
			"to": [8.75, 16, 8.75],
			"faces": {
				"north": {"uv": [2.5, 7.5, 3, 8.5], "texture": "#1"},
				"east": {"uv": [2, 7.5, 2.5, 8.5], "texture": "#1"},
				"south": {"uv": [3.5, 7.5, 4, 8.5], "texture": "#1"},
				"west": {"uv": [3, 7.5, 3.5, 8.5], "texture": "#1"},
				"up": {"uv": [3, 7.5, 2.5, 7], "texture": "#1"},
				"down": {"uv": [3.5, 7, 3, 7.5], "texture": "#1"}
			}
		},
		{
			"name": "Collar Ridge Lower",
			"from": [7, 14.25, 7],
			"to": [9, 14.5, 9],
			"faces": {
				"north": {"uv": [5, 3.5, 6, 4], "texture": "#1"},
				"east": {"uv": [4, 3.5, 5, 4], "texture": "#1"},
				"south": {"uv": [7, 3.5, 8, 4], "texture": "#1"},
				"west": {"uv": [6, 3.5, 7, 4], "texture": "#1"},
				"up": {"uv": [6, 3.5, 5, 2.5], "texture": "#1"},
				"down": {"uv": [7, 2.5, 6, 3.5], "texture": "#1"}
			}
		},
		{
			"name": "Collar Ridge Middle",
			"from": [7, 14.75, 7],
			"to": [9, 15, 9],
			"faces": {
				"north": {"uv": [9, 3.5, 10, 4], "texture": "#1"},
				"east": {"uv": [8, 3.5, 9, 4], "texture": "#1"},
				"south": {"uv": [11, 3.5, 12, 4], "texture": "#1"},
				"west": {"uv": [10, 3.5, 11, 4], "texture": "#1"},
				"up": {"uv": [10, 3.5, 9, 2.5], "texture": "#1"},
				"down": {"uv": [11, 2.5, 10, 3.5], "texture": "#1"}
			}
		},
		{
			"name": "ARS Bulb Top",
			"from": [6, 8, 6],
			"to": [10, 10, 10],
			"faces": {
				"north": {"uv": [1, 4.5, 2, 5], "texture": "#0"},
				"east": {"uv": [0, 4.5, 1, 5], "texture": "#0"},
				"south": {"uv": [3, 4.5, 4, 5], "texture": "#0"},
				"west": {"uv": [2, 4.5, 3, 5], "texture": "#0"},
				"up": {"uv": [2, 4.5, 1, 3.5], "texture": "#0"},
				"down": {"uv": [3, 3.5, 2, 4.5], "texture": "#0"}
			}
		},
		{
			"name": "ARS Bulb Bloat",
			"from": [5, 1, 5],
			"to": [11, 8, 11],
			"faces": {
				"north": {"uv": [1.5, 1.5, 3, 3.25], "texture": "#0"},
				"east": {"uv": [0, 1.5, 1.5, 3.25], "texture": "#0"},
				"south": {"uv": [4.5, 1.5, 6, 3.25], "texture": "#0"},
				"west": {"uv": [3, 1.5, 4.5, 3.25], "texture": "#0"},
				"up": {"uv": [3, 1.5, 1.5, 0], "texture": "#0"},
				"down": {"uv": [4.5, 0, 3, 1.5], "texture": "#0"}
			}
		},
		{
			"name": "ARS Bulb End",
			"from": [6, 0.25, 6],
			"to": [10, 1, 10],
			"faces": {
				"north": {"uv": [5, 4.5, 6, 4.75], "texture": "#0"},
				"east": {"uv": [4, 4.5, 5, 4.75], "texture": "#0"},
				"south": {"uv": [7, 4.5, 8, 4.75], "texture": "#0"},
				"west": {"uv": [6, 4.5, 7, 4.75], "texture": "#0"},
				"up": {"uv": [6, 4.5, 5, 3.5], "texture": "#0"},
				"down": {"uv": [7, 3.5, 6, 4.5], "texture": "#0"}
			}
		},
		{
			"name": "ARS Bulb Core 1",
			"from": [5.5, 0.5, 5.5],
			"to": [10.5, 9.5, 10.5],
			"faces": {
				"north": {"uv": [7.25, 1.25, 8.5, 3.5], "texture": "#0"},
				"east": {"uv": [6, 1.25, 7.25, 3.5], "texture": "#0"},
				"south": {"uv": [9.75, 1.25, 11, 3.5], "texture": "#0"},
				"west": {"uv": [8.5, 1.25, 9.75, 3.5], "texture": "#0"},
				"up": {"uv": [8.5, 1.25, 7.25, 0], "texture": "#0"},
				"down": {"uv": [9.75, 0, 8.5, 1.25], "texture": "#0"}
			}
		},
		{
			"name": "ARS Bulb Core 2",
			"from": [5.25, 0.75, 5.25],
			"to": [10.75, 8.75, 10.75],
			"faces": {
				"north": {"uv": [12.25, 1.25, 13.5, 3.25], "texture": "#0"},
				"east": {"uv": [11, 1.25, 12.25, 3.25], "texture": "#0"},
				"south": {"uv": [14.75, 1.25, 16, 3.25], "texture": "#0"},
				"west": {"uv": [13.5, 1.25, 14.75, 3.25], "texture": "#0"},
				"up": {"uv": [13.5, 1.25, 12.25, 0], "texture": "#0"},
				"down": {"uv": [14.75, 0, 13.5, 1.25], "texture": "#0"}
			}
		}
	],
	"display": {
		"thirdperson_righthand": {
			"rotation": [75, 45, 0],
			"translation": [0, 2.5, 0],
			"scale": [0.375, 0.375, 0.375]
		},
		"thirdperson_lefthand": {
			"rotation": [75, 45, 0],
			"translation": [0, 2.5, 0],
			"scale": [0.375, 0.375, 0.375]
		},
		"firstperson_righthand": {
			"rotation": [0, 45, 0],
			"translation": [4.5, 0, 0],
			"scale": [0.4, 0.4, 0.4]
		},
		"firstperson_lefthand": {
			"rotation": [0, 225, 0],
			"translation": [4.5, 0, 0],
			"scale": [0.4, 0.4, 0.4]
		},
		"ground": {
			"translation": [0, 3, 0],
			"scale": [0.25, 0.25, 0.25]
		},
		"gui": {
			"rotation": [30, 225, 0],
			"scale": [0.625, 0.625, 0.625]
		},
		"head": {
			"rotation": [-180, 0, 0],
			"translation": [0, 14.25, 0]
		},
		"fixed": {
			"scale": [0.5, 0.5, 0.5]
		}
	},
	"groups": [
		{
			"name": "ARS EGG",
			"children": [
				{
					"name": "ARS Collar",
					"children": [0, 1, 2, 3, 4, 5, 6, 7, 8, 9, 10, 11, 12, 13, 14]
				},
				{
					"name": "ARS Bulb",
					"children": [
						{
							"name": "group",
							"children": [
								{
									"name": "group",
									"children": [15, 16, 17, 18, 19]
								}
							]
						}
					]
				}
			]
		}
	]
}