{
	"credit": "Made with Blockbench",
	"texture_size": [64, 64],
	"textures": {
		"0": "tardis:block/holo_observatory",
		"particle": "tardis:block/holo_observatory"
	},
	"elements": [
		{
			"from": [0, 0, 0],
			"to": [16, 3, 16],
			"faces": {
				"north": {"uv": [7.5, 2, 11.5, 2.75], "texture": "#0"},
				"east": {"uv": [7.5, 2.75, 11.5, 3.5], "texture": "#0"},
				"south": {"uv": [7.5, 3.5, 11.5, 4.25], "texture": "#0"},
				"west": {"uv": [7.5, 4.25, 11.5, 5], "texture": "#0"},
				"up": {"uv": [4, 4, 0, 0], "texture": "#0"},
				"down": {"uv": [4, 4, 0, 8], "texture": "#0"}
			}
		},
		{
			"from": [0, 14, 0],
			"to": [14, 16, 2],
			"rotation": {"angle": 0, "axis": "y", "origin": [8, 10.75, 8]},
			"faces": {
				"north": {"uv": [4, 3.5, 7.5, 4], "texture": "#0"},
				"east": {"uv": [12.25, 8, 12.75, 8.5], "texture": "#0"},
				"south": {"uv": [7.5, 6.75, 11, 7.25], "texture": "#0"},
				"west": {"uv": [3.75, 12.5, 4.25, 13], "texture": "#0"},
				"up": {"uv": [10.75, 9, 7.25, 8.5], "texture": "#0"},
				"down": {"uv": [12.25, 5, 8.75, 5.5], "texture": "#0"}
			}
		},
		{
			"from": [2, 14, 14],
			"to": [16, 16, 16],
			"rotation": {"angle": 0, "axis": "y", "origin": [8, 10.75, 8]},
			"faces": {
				"north": {"uv": [8.25, 9, 11.75, 9.5], "texture": "#0"},
				"east": {"uv": [5.25, 12.5, 5.75, 13], "texture": "#0"},
				"south": {"uv": [8.25, 9.5, 11.75, 10], "texture": "#0"},
				"west": {"uv": [5.75, 12.5, 6.25, 13], "texture": "#0"},
				"up": {"uv": [11.75, 10.5, 8.25, 10], "texture": "#0"},
				"down": {"uv": [3.5, 10.25, 0, 10.75], "texture": "#0"}
			}
		},
		{
			"from": [0, 14, 2],
			"to": [2, 16, 16],
			"rotation": {"angle": 0, "axis": "y", "origin": [8, 10.75, 8]},
			"faces": {
				"north": {"uv": [4.25, 12.5, 4.75, 13], "texture": "#0"},
				"east": {"uv": [8.75, 5.5, 12.25, 6], "texture": "#0"},
				"south": {"uv": [4.75, 12.5, 5.25, 13], "texture": "#0"},
				"west": {"uv": [8.75, 6, 12.25, 6.5], "texture": "#0"},
				"up": {"uv": [7.75, 12.5, 7.25, 9], "texture": "#0"},
				"down": {"uv": [8.25, 9, 7.75, 12.5], "texture": "#0"}
			}
		},
		{
			"from": [14, 14, 0],
			"to": [16, 16, 14],
			"rotation": {"angle": 0, "axis": "y", "origin": [8, 10.75, 8]},
			"faces": {
				"north": {"uv": [7, 12.5, 7.5, 13], "texture": "#0"},
				"east": {"uv": [3.5, 10.25, 7, 10.75], "texture": "#0"},
				"south": {"uv": [7.5, 12.5, 8, 13], "texture": "#0"},
				"west": {"uv": [8.25, 10.5, 11.75, 11], "texture": "#0"},
				"up": {"uv": [0.5, 14.25, 0, 10.75], "texture": "#0"},
				"down": {"uv": [1, 10.75, 0.5, 14.25], "texture": "#0"}
			}
		},
		{
			"from": [1.6, 12.8, 1.6],
			"to": [12.8, 14.4, 3.2],
			"rotation": {"angle": 0, "axis": "y", "origin": [8, 10.75, 8]},
			"faces": {
				"north": {"uv": [0, 9.75, 2.75, 10.25], "texture": "#0"},
				"east": {"uv": [9.75, 12.5, 10.25, 13], "texture": "#0"},
				"south": {"uv": [1, 10.75, 3.75, 11.25], "texture": "#0"},
				"west": {"uv": [10.25, 12.5, 10.75, 13], "texture": "#0"},
				"up": {"uv": [6.5, 11.25, 3.75, 10.75], "texture": "#0"},
				"down": {"uv": [13.5, 8.5, 10.75, 9], "texture": "#0"}
			}
		},
		{
			"from": [3.2, 12.8, 12.8],
			"to": [14.4, 14.4, 14.4],
			"rotation": {"angle": 0, "axis": "y", "origin": [8, 10.75, 8]},
			"faces": {
				"north": {"uv": [8.25, 11, 11, 11.5], "texture": "#0"},
				"east": {"uv": [11.25, 12.5, 11.75, 13], "texture": "#0"},
				"south": {"uv": [11, 11, 13.75, 11.5], "texture": "#0"},
				"west": {"uv": [11.75, 12.5, 12.25, 13], "texture": "#0"},
				"up": {"uv": [13.75, 0.5, 11, 0], "texture": "#0"},
				"down": {"uv": [13.75, 0.5, 11, 1], "texture": "#0"}
			}
		},
		{
			"from": [1.6, 12.8, 3.2],
			"to": [3.2, 14.4, 14.4],
			"rotation": {"angle": 0, "axis": "y", "origin": [8, 10.75, 8]},
			"faces": {
				"north": {"uv": [12.25, 12.5, 12.75, 13], "texture": "#0"},
				"east": {"uv": [11, 1, 13.75, 1.5], "texture": "#0"},
				"south": {"uv": [12.75, 12.75, 13.25, 13.25], "texture": "#0"},
				"west": {"uv": [11, 1.5, 13.75, 2], "texture": "#0"},
				"up": {"uv": [7, 13.5, 6.5, 10.75], "texture": "#0"},
				"down": {"uv": [1.5, 11.25, 1, 14], "texture": "#0"}
			}
		},
		{
			"from": [12.8, 12.8, 1.6],
			"to": [14.4, 14.4, 12.8],
			"rotation": {"angle": 0, "axis": "y", "origin": [8, 10.75, 8]},
			"faces": {
				"north": {"uv": [12.75, 5, 13.25, 5.5], "texture": "#0"},
				"east": {"uv": [11, 6.5, 13.75, 7], "texture": "#0"},
				"south": {"uv": [12.75, 5.5, 13.25, 6], "texture": "#0"},
				"west": {"uv": [11, 7, 13.75, 7.5], "texture": "#0"},
				"up": {"uv": [2, 14, 1.5, 11.25], "texture": "#0"},
				"down": {"uv": [2.5, 11.25, 2, 14], "texture": "#0"}
			}
		},
		{
			"from": [2.624, 10.602, 2.624],
			"to": [12.032, 12.946, 3.968],
			"rotation": {"angle": 0, "axis": "y", "origin": [8, 10.75, 8]},
			"faces": {
				"north": {"uv": [8.25, 11.5, 10.5, 12], "texture": "#0"},
				"east": {"uv": [3.75, 8, 4, 8.5], "texture": "#0"},
				"south": {"uv": [10.5, 11.5, 12.75, 12], "texture": "#0"},
				"west": {"uv": [8, 12.5, 8.25, 13], "texture": "#0"},
				"up": {"uv": [9.75, 7.5, 7.5, 7.25], "texture": "#0"},
				"down": {"uv": [11, 6.5, 8.75, 6.75], "texture": "#0"}
			}
		},
		{
			"from": [3.968, 10.602, 12.032],
			"to": [13.376, 12.946, 13.376],
			"rotation": {"angle": 0, "axis": "y", "origin": [8, 10.75, 8]},
			"faces": {
				"north": {"uv": [11.5, 2, 13.75, 2.5], "texture": "#0"},
				"east": {"uv": [10.75, 12.5, 11, 13], "texture": "#0"},
				"south": {"uv": [11.5, 2.5, 13.75, 3], "texture": "#0"},
				"west": {"uv": [12.75, 6, 13, 6.5], "texture": "#0"},
				"up": {"uv": [12, 12.25, 9.75, 12], "texture": "#0"},
				"down": {"uv": [14.25, 12, 12, 12.25], "texture": "#0"}
			}
		},
		{
			"from": [2.624, 10.602, 3.968],
			"to": [3.968, 12.946, 13.376],
			"rotation": {"angle": 0, "axis": "y", "origin": [8, 10.75, 8]},
			"faces": {
				"north": {"uv": [12.75, 7.5, 13, 8], "texture": "#0"},
				"east": {"uv": [11.5, 3, 13.75, 3.5], "texture": "#0"},
				"south": {"uv": [12.75, 8, 13, 8.5], "texture": "#0"},
				"west": {"uv": [11.5, 3.5, 13.75, 4], "texture": "#0"},
				"up": {"uv": [7.25, 12.5, 7, 10.25], "texture": "#0"},
				"down": {"uv": [6.5, 11.25, 6.25, 13.5], "texture": "#0"}
			}
		},
		{
			"from": [12.032, 10.602, 2.624],
			"to": [13.376, 12.946, 12.032],
			"rotation": {"angle": 0, "axis": "y", "origin": [8, 10.75, 8]},
			"faces": {
				"north": {"uv": [12.75, 9, 13, 9.5], "texture": "#0"},
				"east": {"uv": [11.5, 4, 13.75, 4.5], "texture": "#0"},
				"south": {"uv": [12.75, 9.5, 13, 10], "texture": "#0"},
				"west": {"uv": [11.5, 4.5, 13.75, 5], "texture": "#0"},
				"up": {"uv": [2.75, 14.5, 2.5, 12.25], "texture": "#0"},
				"down": {"uv": [3, 12.25, 2.75, 14.5], "texture": "#0"}
			}
		},
		{
			"from": [1.968, 6.352, 6.718],
			"to": [2.968, 11.696, 9.126],
			"rotation": {"angle": 0, "axis": "y", "origin": [8, 13.556, 9.094]},
			"faces": {
				"north": {"uv": [3, 12.25, 3.25, 13.5], "texture": "#0"},
				"east": {"uv": [5.75, 11.25, 6.25, 12.5], "texture": "#0"},
				"south": {"uv": [3.25, 12.25, 3.5, 13.5], "texture": "#0"},
				"west": {"uv": [8.25, 12, 8.75, 13.25], "texture": "#0"},
				"up": {"uv": [13, 10.5, 12.75, 10], "texture": "#0"},
				"down": {"uv": [13, 10.5, 12.75, 11], "texture": "#0"}
			}
		},
		{
			"from": [12.968, 6.352, 6.718],
			"to": [13.968, 11.696, 9.126],
			"rotation": {"angle": 0, "axis": "y", "origin": [19, 13.556, 9.094]},
			"faces": {
				"north": {"uv": [3.5, 12.25, 3.75, 13.5], "texture": "#0"},
				"east": {"uv": [8.75, 12, 9.25, 13.25], "texture": "#0"},
				"south": {"uv": [11, 12.25, 11.25, 13.5], "texture": "#0"},
				"west": {"uv": [9.25, 12, 9.75, 13.25], "texture": "#0"},
				"up": {"uv": [13, 12, 12.75, 11.5], "texture": "#0"},
				"down": {"uv": [4, 13, 3.75, 13.5], "texture": "#0"}
			}
		},
		{
			"from": [1, 3, 1],
			"to": [15, 7, 15],
			"rotation": {"angle": 0, "axis": "y", "origin": [8, 11, 8]},
			"faces": {
				"north": {"uv": [4, 7.5, 7.5, 8.5], "texture": "#0"},
				"east": {"uv": [7.5, 7.5, 11, 8.5], "texture": "#0"},
				"south": {"uv": [7.5, 0, 11, 1], "texture": "#0"},
				"west": {"uv": [7.5, 1, 11, 2], "texture": "#0"},
				"up": {"uv": [7.5, 7.5, 4, 4], "texture": "#0"},
				"down": {"uv": [7.5, 0, 4, 3.5], "texture": "#0"}
			}
		},
		{
			"from": [6, 3, 0],
			"to": [10, 10, 5],
			"rotation": {"angle": 0, "axis": "y", "origin": [8, 15, 8]},
			"faces": {
				"north": {"uv": [5.25, 8.5, 6.25, 10.25], "texture": "#0"},
				"east": {"uv": [7.5, 5, 8.75, 6.75], "texture": "#0"},
				"south": {"uv": [6.25, 8.5, 7.25, 10.25], "texture": "#0"},
				"west": {"uv": [0, 8, 1.25, 9.75], "texture": "#0"},
				"up": {"uv": [4.75, 12.5, 3.75, 11.25], "texture": "#0"},
				"down": {"uv": [5.75, 11.25, 4.75, 12.5], "texture": "#0"}
			}
		},
		{
			"from": [7, 7.5, 5],
			"to": [9, 9.5, 7],
			"rotation": {"angle": 0, "axis": "y", "origin": [8, 13.5, 13]},
			"faces": {
				"north": {"uv": [3.25, 8, 3.75, 8.5], "texture": "#0"},
				"east": {"uv": [2.75, 9.75, 3.25, 10.25], "texture": "#0"},
				"south": {"uv": [12.25, 5, 12.75, 5.5], "texture": "#0"},
				"west": {"uv": [12.25, 5.5, 12.75, 6], "texture": "#0"},
				"up": {"uv": [12.75, 6.5, 12.25, 6], "texture": "#0"},
				"down": {"uv": [12.75, 7.5, 12.25, 8], "texture": "#0"}
			}
		},
		{
			"from": [5.75, 8, 6],
			"to": [10.25, 9, 10],
			"rotation": {"angle": 0, "axis": "y", "origin": [9, 14, 7]},
			"faces": {
				"north": {"uv": [9.75, 7.25, 11, 7.5], "texture": "#0"},
				"east": {"uv": [11.25, 12.25, 12.25, 12.5], "texture": "#0"},
				"south": {"uv": [9.75, 12.25, 11, 12.5], "texture": "#0"},
				"west": {"uv": [12.25, 12.25, 13.25, 12.5], "texture": "#0"},
				"up": {"uv": [12.25, 8.5, 11, 7.5], "texture": "#0"},
				"down": {"uv": [3.75, 11.25, 2.5, 12.25], "texture": "#0"}
			}
		},
		{
			"from": [6.25, 7, 6.25],
			"to": [9.75, 14, 9.75],
			"rotation": {"angle": 0, "axis": "y", "origin": [8, 17, 8]},
			"faces": {
				"north": {"uv": [1.25, 8, 2.25, 9.75], "texture": "#0"},
				"east": {"uv": [2.25, 8, 3.25, 9.75], "texture": "#0"},
				"south": {"uv": [3.25, 8.5, 4.25, 10.25], "texture": "#0"},
				"west": {"uv": [4.25, 8.5, 5.25, 10.25], "texture": "#0"},
				"up": {"uv": [12.75, 10, 11.75, 9], "texture": "#0"},
				"down": {"uv": [12.75, 10, 11.75, 11], "texture": "#0"}
			}
		}
	],
	"display": {
		"thirdperson_righthand": {
			"translation": [0, 0.5, -4.25],
			"scale": [0.6, 0.6, -0.6]
		},
		"thirdperson_lefthand": {
			"translation": [0, 0, -4.25],
			"scale": [0.6, 0.6, -0.6]
		},
		"firstperson_righthand": {
			"scale": [0.5, 0.5, 0.5]
		},
		"firstperson_lefthand": {
			"scale": [0.5, 0.5, 0.5]
		},
		"ground": {
			"translation": [0, 4.5, 0]
		},
		"gui": {
			"rotation": [30, 45, 0],
			"translation": [0, 0.25, 0],
			"scale": [0.6, 0.6, 0.6]
		},
		"head": {
			"translation": [0, 7.75, 0]
		}
	},
	"groups": [
		{
			"name": "holo_observatory",
			"origin": [8, 8, 8],
			"children": [0,
				{
					"name": "dish",
					"origin": [8, 21, 8],
					"children": [1, 2, 3, 4, 5, 6, 7, 8,
						{
							"name": "group",
							"origin": [8, 21, 8],
							"children": [9, 10, 11, 12]
						}
					]
				},
				{
					"name": "struts",
					"origin": [8, 21, 8],
					"children": [13, 14]
				}, 15, 16, 17, 18, 19]
		}
	]
}