{
	"credit": "Made with Blockbench",
	"texture_size": [64, 64],
	"textures": {
		"0": "tardis:block/roundel_tap_output",
		"particle": "tardis:block/roundel_tap_output"
	},
	"elements": [
		{
			"from": [0, 0, 0],
			"to": [16, 1, 16],
			"faces": {
				"north": {"uv": [0, 8, 4, 8.25], "texture": "#0"},
				"east": {"uv": [0, 8.25, 4, 8.5], "texture": "#0"},
				"south": {"uv": [0, 8.75, 4, 9], "texture": "#0"},
				"west": {"uv": [0, 8.5, 4, 8.75], "texture": "#0"},
				"up": {"uv": [4, 4, 0, 0], "texture": "#0"},
				"down": {"uv": [4, 4, 0, 8], "texture": "#0"}
			}
		},
		{
			"from": [2, 0.75, 2],
			"to": [14, 1.75, 14],
			"faces": {
				"north": {"uv": [13, 6, 16, 6.25], "texture": "#0"},
				"east": {"uv": [13, 6.25, 16, 6.5], "texture": "#0"},
				"south": {"uv": [13, 6.75, 16, 7], "texture": "#0"},
				"west": {"uv": [13, 6.5, 16, 6.75], "texture": "#0"},
				"up": {"uv": [16, 3, 13, 0], "texture": "#0"},
				"down": {"uv": [16, 3, 13, 6], "texture": "#0"}
			}
		},
		{
			"from": [2, 4.25, 2],
			"to": [14, 5.25, 14],
			"faces": {
				"north": {"uv": [13, 6, 16, 6.25], "texture": "#0"},
				"east": {"uv": [13, 6.25, 16, 6.5], "texture": "#0"},
				"south": {"uv": [13, 6.75, 16, 7], "texture": "#0"},
				"west": {"uv": [13, 6.5, 16, 6.75], "texture": "#0"},
				"up": {"uv": [16, 3, 13, 0], "texture": "#0"},
				"down": {"uv": [16, 3, 13, 6], "texture": "#0"}
			}
		},
		{
			"from": [2, 2.5, 2],
			"to": [14, 3.5, 14],
			"faces": {
				"north": {"uv": [13, 6, 16, 6.25], "texture": "#0"},
				"east": {"uv": [13, 6.25, 16, 6.5], "texture": "#0"},
				"south": {"uv": [13, 6.75, 16, 7], "texture": "#0"},
				"west": {"uv": [13, 6.5, 16, 6.75], "texture": "#0"},
				"up": {"uv": [16, 3, 13, 0], "texture": "#0"},
				"down": {"uv": [16, 3, 13, 6], "texture": "#0"}
			}
		},
		{
			"from": [2, 6, 2],
			"to": [14, 7, 14],
			"faces": {
				"north": {"uv": [13, 6, 16, 6.25], "texture": "#0"},
				"east": {"uv": [13, 6.25, 16, 6.5], "texture": "#0"},
				"south": {"uv": [13, 6.75, 16, 7], "texture": "#0"},
				"west": {"uv": [13, 6.5, 16, 6.75], "texture": "#0"},
				"up": {"uv": [16, 3, 13, 0], "texture": "#0"},
				"down": {"uv": [16, 3, 13, 6], "texture": "#0"}
			}
		},
		{
			"from": [2, 7.75, 2],
			"to": [14, 8.75, 14],
			"faces": {
				"north": {"uv": [13, 6, 16, 6.25], "texture": "#0"},
				"east": {"uv": [13, 6.25, 16, 6.5], "texture": "#0"},
				"south": {"uv": [13, 6.75, 16, 7], "texture": "#0"},
				"west": {"uv": [13, 6.5, 16, 6.75], "texture": "#0"},
				"up": {"uv": [16, 3, 13, 0], "texture": "#0"},
				"down": {"uv": [16, 3, 13, 6], "texture": "#0"}
			}
		},
		{
			"from": [2, 9.5, 2],
			"to": [14, 10.5, 14],
			"faces": {
				"north": {"uv": [13, 6, 16, 6.25], "texture": "#0"},
				"east": {"uv": [13, 6.25, 16, 6.5], "texture": "#0"},
				"south": {"uv": [13, 6.75, 16, 7], "texture": "#0"},
				"west": {"uv": [13, 6.5, 16, 6.75], "texture": "#0"},
				"up": {"uv": [16, 3, 13, 0], "texture": "#0"},
				"down": {"uv": [16, 3, 13, 6], "texture": "#0"}
			}
		},
		{
			"from": [2, 11, 2],
			"to": [14, 12, 14],
			"faces": {
				"north": {"uv": [13, 6, 16, 6.25], "texture": "#0"},
				"east": {"uv": [13, 6.25, 16, 6.5], "texture": "#0"},
				"south": {"uv": [13, 6.75, 16, 7], "texture": "#0"},
				"west": {"uv": [13, 6.5, 16, 6.75], "texture": "#0"},
				"up": {"uv": [16, 3, 13, 0], "texture": "#0"},
				"down": {"uv": [16, 3, 13, 6], "texture": "#0"}
			}
		},
		{
			"from": [3, 12.5, 3],
			"to": [13, 13.5, 13],
			"faces": {
				"north": {"uv": [10.5, 8, 13.5, 8.25], "texture": "#0"},
				"east": {"uv": [10.5, 8.25, 13.5, 8.5], "texture": "#0"},
				"south": {"uv": [10.5, 8.75, 13.5, 9], "texture": "#0"},
				"west": {"uv": [10.5, 8.5, 13.5, 8.75], "texture": "#0"},
				"up": {"uv": [7.5, 11, 4.5, 8], "texture": "#0"},
				"down": {"uv": [10.5, 8, 7.5, 11], "texture": "#0"}
			}
		},
		{
			"from": [4, 1, 4],
			"to": [12, 13, 12],
			"faces": {
				"north": {"uv": [4.5, 2, 6.5, 5], "texture": "#0"},
				"east": {"uv": [6.5, 2, 8.5, 5], "texture": "#0"},
				"south": {"uv": [10.5, 2, 12.5, 5], "texture": "#0"},
				"west": {"uv": [8.5, 2, 10.5, 5], "texture": "#0"},
				"up": {"uv": [6.5, 2, 4.5, 0], "texture": "#0"},
				"down": {"uv": [12.5, 0, 10.5, 2], "texture": "#0"}
			}
		},
		{
			"from": [6, 13, 6],
			"to": [10, 16, 10],
			"faces": {
				"north": {"uv": [4.5, 6.5, 5.5, 7.25], "texture": "#0"},
				"east": {"uv": [5.5, 6.5, 6.5, 7.25], "texture": "#0"},
				"south": {"uv": [7.5, 6.5, 8.5, 7.25], "texture": "#0"},
				"west": {"uv": [6.5, 6.5, 7.5, 7.25], "texture": "#0"},
				"up": {"uv": [9.5, 7.5, 8.5, 6.5], "texture": "#0"},
				"down": {"uv": [10.5, 6.5, 9.5, 7.5], "texture": "#0"}
			}
		},
		{
			"from": [0, 6, 6],
			"to": [4, 10, 10],
			"faces": {
				"north": {"uv": [4.5, 5.25, 5.5, 6.25], "texture": "#0"},
				"east": {"uv": [5.5, 5.25, 6.5, 6.25], "texture": "#0"},
				"south": {"uv": [7.5, 5.25, 8.5, 6.25], "texture": "#0"},
				"west": {"uv": [6.5, 5.25, 7.5, 6.25], "texture": "#0"},
				"up": {"uv": [9.5, 6.25, 8.5, 5.25], "texture": "#0"},
				"down": {"uv": [10.5, 5.25, 9.5, 6.25], "texture": "#0"}
			}
		},
		{
			"from": [6, 6, 12],
			"to": [10, 10, 16],
			"faces": {
				"north": {"uv": [5.5, 5.25, 6.5, 6.25], "texture": "#0"},
				"east": {"uv": [7.5, 5.25, 8.5, 6.25], "texture": "#0"},
				"south": {"uv": [6.5, 5.25, 7.5, 6.25], "texture": "#0"},
				"west": {"uv": [4.5, 5.25, 5.5, 6.25], "texture": "#0"},
				"up": {"uv": [9.5, 6.25, 8.5, 5.25], "rotation": 270, "texture": "#0"},
				"down": {"uv": [10.5, 5.25, 9.5, 6.25], "rotation": 90, "texture": "#0"}
			}
		},
		{
			"from": [12, 6, 6],
			"to": [16, 10, 10],
			"faces": {
				"north": {"uv": [7.5, 5.25, 8.5, 6.25], "texture": "#0"},
				"east": {"uv": [6.5, 5.25, 7.5, 6.25], "texture": "#0"},
				"south": {"uv": [4.5, 5.25, 5.5, 6.25], "texture": "#0"},
				"west": {"uv": [5.5, 5.25, 6.5, 6.25], "texture": "#0"},
				"up": {"uv": [9.5, 6.25, 8.5, 5.25], "rotation": 180, "texture": "#0"},
				"down": {"uv": [10.5, 5.25, 9.5, 6.25], "rotation": 180, "texture": "#0"}
			}
		},
		{
			"from": [6, 6, 0],
			"to": [10, 10, 4],
			"faces": {
				"north": {"uv": [6.5, 5.25, 7.5, 6.25], "texture": "#0"},
				"east": {"uv": [4.5, 5.25, 5.5, 6.25], "texture": "#0"},
				"south": {"uv": [5.5, 5.25, 6.5, 6.25], "texture": "#0"},
				"west": {"uv": [7.5, 5.25, 8.5, 6.25], "texture": "#0"},
				"up": {"uv": [9.5, 6.25, 8.5, 5.25], "rotation": 90, "texture": "#0"},
				"down": {"uv": [10.5, 5.25, 9.5, 6.25], "rotation": 270, "texture": "#0"}
			}
		}
	],
	"display": {
		"thirdperson_righthand": {
			"scale": [0.25, 0.25, 0.25]
		},
		"thirdperson_lefthand": {
			"scale": [0.25, 0.25, 0.25]
		},
		"firstperson_righthand": {
			"scale": [0.5, 0.5, 0.5]
		},
		"firstperson_lefthand": {
			"scale": [0.5, 0.5, 0.5]
		},
		"ground": {
			"scale": [0.25, 0.25, 0.25]
		},
		"gui": {
			"rotation": [30, 45, 0],
			"scale": [0.5, 0.5, 0.5]
		}
	}
}