{
  "parent": "block/slab",
  "textures": {
    "bottom": "tardis:block/technology/tungsten",
    "top": "tardis:block/technology/tungsten",
    "side": "tardis:block/technology/tungsten_pipes"
  }
}
