{
    "variants": {
        "facing=up,push=true": { "model": "tardis:block/roundel_tap"},
        "facing=down,push=true": { "model": "tardis:block/roundel_tap", "x": 180 },
        "facing=north,push=true": { "model": "tardis:block/roundel_tap", "x": 90 },
        "facing=south,push=true": { "model": "tardis:block/roundel_tap", "x": 270 },
        "facing=west,push=true": { "model": "tardis:block/roundel_tap", "x": 90, "y": 270 },
        "facing=east,push=true": { "model": "tardis:block/roundel_tap", "x": 90, "y": 90 },
        "facing=up,push=false": { "model": "tardis:block/roundel_tap_drain"},
        "facing=down,push=false": { "model": "tardis:block/roundel_tap_drain", "x": 180 },
        "facing=north,push=false": { "model": "tardis:block/roundel_tap_drain", "x": 90 },
        "facing=south,push=false": { "model": "tardis:block/roundel_tap_drain", "x": 270 },
        "facing=west,push=false": { "model": "tardis:block/roundel_tap_drain", "x": 90, "y": 270 },
        "facing=east,push=false": { "model": "tardis:block/roundel_tap_drain", "x": 90, "y": 90 }
    }
}
