{
	"variants":{
        "facing=north":{
			"model": "tardis:block/telescope",
			"y": 0
		},
	    "facing=east":{
			"model": "tardis:block/telescope",
			"y": 90
		},
		"facing=south":{
			"model": "tardis:block/telescope",
			"y": 180
		},
		"facing=west":{
			"model": "tardis:block/telescope",
			"y": 270
		}
	}
}