{
	"type": "tardis:quantiscope",
	"repair":false,
	"ingredients":[
		{"item":"minecraft:obsidian"},
		{"item":"minecraft:iron_block"},
		{"item":"tardis:circuits"},
		{"item":"minecraft:iron_block"},
		{"item":"minecraft:obsidian"}
	],
	"result":{
		"item":"tardis:subsystem/stabilizer"
	}
}