{
	"type": "tardis:quantiscope",
	"repair":false,
	"ingredients":[
		{"item":"tardis:xion_crystal"},
		{"item":"minecraft:redstone_block"},
		{"item":"minecraft:glass"},
		{"item":"tardis:circuits"},
		{"item":"tardis:xion_crystal"}
	],
	"result":{
		"item":"tardis:artron_battery_medium"
	}
}