{
	"type": "tardis:quantiscope",
	"repair":false,
	"ingredients":[
		{"item":"tardis:sonic_emitter"},
		{"item":"tardis:sonic_activator"},
		{"item":"tardis:sonic_handle"},
		{"item":"tardis:sonic_end"}
	],
	"result":{
		"item":"tardis:sonic"
	}
}