{
	"type": "tardis:quantiscope",
	"repair":false,
	"ingredients":[
		{"item":"tardis:xion_crystal"},
		{"item":"minecraft:redstone"},
		{"item":"minecraft:redstone"},
		{"item":"minecraft:iron_nugget"},
		{"item":"minecraft:iron_nugget"}
	],
	"result":{
		"item":"tardis:sonic_emitter"
	}
}