{
	"type":"minecraft:crafting_shaped",
	"pattern":[
		"scs",
		"cec",
		"scs"
	],
	"key":{
		"s":{
			"item":"minecraft:stone"
		},
		"c":{
			"item":"tardis:xion_crystal"
		},
		"e":{
			"item":"minecraft:ender_pearl"
		}
	},
	"result":{
		"item":"tardis:atrium_block",
		"count": 16
	}
}