{
  "type": "minecraft:crafting_shaped",
  "pattern":[
  "  I",
  "IEC",
  "I  "
  ],
  "key": {
  "C":
  {
  "item": "tardis:circuits"
  },
  "E":
  {
  "item":"minecraft:ender_pearl"
  },
   "I":
  {
   "item": "minecraft:iron_ingot"
  }
  },
  "result": {
    "item": "tardis:key_gallifreyan"
  }
}