{
  "type": "minecraft:crafting_shaped",
  "pattern":[
  "LSL",
  "LWL",
  "LSL"
  ],
  "key": {
  "L":
  {
  "item": "minecraft:leather"
  },
  "S":
  {
   "item": "minecraft:string"
  },
  "W":
  {
  "tag":"minecraft:wool"
  }
  },
  "result": {
    "item": "tardis:vm_strap"
  }
}