{
  "type": "minecraft:crafting_shaped",
  "pattern": [
    "ggg",
    "exe",
    "www"
  ],
  "key": {
    "e": {
      "item": "tardis:circuits"
    },
    "g": {
      "item": "minecraft:glass"
    },
    "x": {
      "item": "tardis:xion_crystal"
    },
    "w": {
      "tag": "minecraft:wooden_slabs"
    }
  },
  "result": {
    "item": "tardis:vortex_detector"
  }
}