{
  "type": "normal",
  "text": "Timeship Mood. Mood is about how the timeship feels, and is easy to change in either direction. It affects low level details of your flight experience, such as accuracy of the landing. You can measure mood using the lighting of the interior. If the lighting is of a warm colour (orange hue), the mood is high. If the lighting is a cool colour(blue hue), the mood is low. Finally, you may also find that using the Telepathic Circuits can help you feel more connection to your Timeship. This can also allow you to be perceptive of its mood when you sleep in a bed in the interior. If cloud particles appear, the Timeship mood is likely low. To maintain a healthy emotional state, keep your timeship company by staying in its interior and regularly take it on flight journeys."
}