{
	"credit": "Made with Blockbench",
	"texture_size": [32, 32],
	"textures": {
		"13": "tardis:item/sonics/mk3_handle"
	},
	"elements": [
		{
			"name": "octagon",
			"from": [1.96266, 2.9072, 7.45581],
			"to": [2.76774, 4.85082, 12.67669],
			"rotation": {"angle": 45, "axis": "z", "origin": [8, 9.51381, 6.0576]},
			"faces": {
				"north": {"uv": [5.5, 4, 6, 5], "texture": "#13"},
				"east": {"uv": [0, 0, 2.5, 1], "texture": "#13"},
				"south": {"uv": [2, 6, 2.5, 7], "texture": "#13"},
				"west": {"uv": [0, 1, 2.5, 2], "texture": "#13"},
				"up": {"uv": [3.5, 6, 3, 3.5], "texture": "#13"},
				"down": {"uv": [4, 3.5, 3.5, 6], "texture": "#13"}
			}
		},
		{
			"name": "octagon",
			"from": [7.59746, 0.57319, 7.45581],
			"to": [8.40254, 2.51681, 12.67669],
			"rotation": {"angle": 0, "axis": "y", "origin": [8, 9.51381, 6.0576]},
			"faces": {
				"north": {"uv": [2.5, 6, 3, 7], "texture": "#13"},
				"east": {"uv": [0, 2, 2.5, 3], "texture": "#13"},
				"south": {"uv": [3, 6, 3.5, 7], "texture": "#13"},
				"west": {"uv": [2.5, 2.5, 5, 3.5], "texture": "#13"},
				"up": {"uv": [4, 2.5, 3.5, 0], "texture": "#13"},
				"down": {"uv": [4.5, 4, 4, 6.5], "texture": "#13"}
			}
		},
		{
			"name": "octagon",
			"from": [1.39339, 3.47647, 7.45581],
			"to": [3.33701, 4.28155, 12.67669],
			"rotation": {"angle": 45, "axis": "z", "origin": [8, 9.51381, 6.0576]},
			"faces": {
				"north": {"uv": [4, 2, 5, 2.5], "texture": "#13"},
				"east": {"uv": [4, 0, 6.5, 0.5], "texture": "#13"},
				"south": {"uv": [5.5, 5, 6.5, 5.5], "texture": "#13"},
				"west": {"uv": [4, 0.5, 6.5, 1], "texture": "#13"},
				"up": {"uv": [3.5, 2.5, 2.5, 0], "texture": "#13"},
				"down": {"uv": [1, 3, 0, 5.5], "texture": "#13"}
			}
		},
		{
			"name": "octagon",
			"from": [7.02819, 1.14246, 7.45581],
			"to": [8.97181, 1.94754, 12.67669],
			"rotation": {"angle": 0, "axis": "y", "origin": [8, 9.51381, 6.0576]},
			"faces": {
				"north": {"uv": [6, 2, 7, 2.5], "texture": "#13"},
				"east": {"uv": [4, 1, 6.5, 1.5], "texture": "#13"},
				"south": {"uv": [6, 2.5, 7, 3], "texture": "#13"},
				"west": {"uv": [4, 1.5, 6.5, 2], "texture": "#13"},
				"up": {"uv": [2, 5.5, 1, 3], "texture": "#13"},
				"down": {"uv": [3, 3.5, 2, 6], "texture": "#13"}
			}
		},
		{
			"name": "octagon",
			"from": [2.80789, 2.71649, 12.57127],
			"to": [3.50025, 4.38801, 14.96748],
			"rotation": {"angle": 45, "axis": "z", "origin": [8, 8.39818, 6.96881]},
			"faces": {
				"north": {"uv": [3.5, 6, 4, 7], "texture": "#13"},
				"east": {"uv": [4.5, 4.5, 5.5, 5.5], "texture": "#13"},
				"south": {"uv": [6, 4, 6.5, 5], "texture": "#13"},
				"west": {"uv": [4.5, 3.5, 5.5, 4.5], "texture": "#13"},
				"up": {"uv": [0.5, 7.5, 0, 6.5], "texture": "#13"},
				"down": {"uv": [1, 6.5, 0.5, 7.5], "texture": "#13"}
			}
		},
		{
			"name": "octagon",
			"from": [7.65382, 0.70924, 12.57127],
			"to": [8.34618, 2.38076, 14.96748],
			"rotation": {"angle": 0, "axis": "y", "origin": [8, 8.39818, 6.96881]},
			"faces": {
				"north": {"uv": [1, 6.5, 1.5, 7.5], "texture": "#13"},
				"east": {"uv": [5, 2, 6, 3], "texture": "#13"},
				"south": {"uv": [1.5, 6.5, 2, 7.5], "texture": "#13"},
				"west": {"uv": [0, 5.5, 1, 6.5], "texture": "#13"},
				"up": {"uv": [4.5, 7.5, 4, 6.5], "texture": "#13"},
				"down": {"uv": [5, 6.5, 4.5, 7.5], "texture": "#13"}
			}
		},
		{
			"name": "octagon",
			"from": [2.31831, 3.20607, 12.57127],
			"to": [3.98983, 3.89843, 14.96748],
			"rotation": {"angle": 45, "axis": "z", "origin": [8, 8.39818, 6.96881]},
			"faces": {
				"north": {"uv": [5, 6.5, 6, 7], "texture": "#13"},
				"east": {"uv": [6, 6.5, 7, 7], "texture": "#13"},
				"south": {"uv": [6.5, 0, 7.5, 0.5], "texture": "#13"},
				"west": {"uv": [6.5, 0.5, 7.5, 1], "texture": "#13"},
				"up": {"uv": [2, 6.5, 1, 5.5], "texture": "#13"},
				"down": {"uv": [5.5, 5.5, 4.5, 6.5], "texture": "#13"}
			}
		},
		{
			"name": "octagon",
			"from": [7.16424, 1.19882, 12.57127],
			"to": [8.83576, 1.89118, 14.96748],
			"rotation": {"angle": 0, "axis": "y", "origin": [8, 8.39818, 6.96881]},
			"faces": {
				"north": {"uv": [6.5, 1, 7.5, 1.5], "texture": "#13"},
				"east": {"uv": [6.5, 1.5, 7.5, 2], "texture": "#13"},
				"south": {"uv": [6.5, 3, 7.5, 3.5], "texture": "#13"},
				"west": {"uv": [6.5, 3.5, 7.5, 4], "texture": "#13"},
				"up": {"uv": [6.5, 6.5, 5.5, 5.5], "texture": "#13"},
				"down": {"uv": [6.5, 3, 5.5, 4], "texture": "#13"}
			}
		},
		{
			"name": "octagon",
			"from": [1.96266, 2.9072, 12.95581],
			"to": [2.76774, 4.85082, 13.42669],
			"rotation": {"angle": 45, "axis": "z", "origin": [8, 9.51381, 6.0576]},
			"faces": {
				"north": {"uv": [6.5, 4, 7, 5], "texture": "#13"},
				"east": {"uv": [6.5, 5, 7, 6], "texture": "#13"},
				"south": {"uv": [2, 7, 2.5, 8], "texture": "#13"},
				"west": {"uv": [2.5, 7, 3, 8], "texture": "#13"},
				"up": {"uv": [2.5, 3.5, 2, 3], "texture": "#13"},
				"down": {"uv": [4.5, 3.5, 4, 4], "texture": "#13"}
			}
		},
		{
			"name": "octagon",
			"from": [7.59746, 0.57319, 12.95581],
			"to": [8.40254, 2.51681, 13.42669],
			"rotation": {"angle": 0, "axis": "y", "origin": [8, 9.51381, 6.0576]},
			"faces": {
				"north": {"uv": [3, 7, 3.5, 8], "texture": "#13"},
				"east": {"uv": [3.5, 7, 4, 8], "texture": "#13"},
				"south": {"uv": [5, 7, 5.5, 8], "texture": "#13"},
				"west": {"uv": [5.5, 7, 6, 8], "texture": "#13"},
				"up": {"uv": [5.5, 3.5, 5, 3], "texture": "#13"},
				"down": {"uv": [7, 8.5, 6.5, 9], "texture": "#13"}
			}
		},
		{
			"name": "octagon",
			"from": [1.39339, 3.47647, 12.95581],
			"to": [3.33701, 4.28155, 13.42669],
			"rotation": {"angle": 45, "axis": "z", "origin": [8, 9.51381, 6.0576]},
			"faces": {
				"north": {"uv": [6.5, 6, 7.5, 6.5], "texture": "#13"},
				"east": {"uv": [8.5, 3.5, 9, 4], "texture": "#13"},
				"south": {"uv": [6, 7, 7, 7.5], "texture": "#13"},
				"west": {"uv": [8.5, 6, 9, 6.5], "texture": "#13"},
				"up": {"uv": [8, 7.5, 7, 7], "texture": "#13"},
				"down": {"uv": [8, 2, 7, 2.5], "texture": "#13"}
			}
		},
		{
			"name": "octagon",
			"from": [7.02819, 1.14246, 12.95581],
			"to": [8.97181, 1.94754, 13.42669],
			"rotation": {"angle": 0, "axis": "y", "origin": [8, 9.51381, 6.0576]},
			"faces": {
				"north": {"uv": [7, 2.5, 8, 3], "texture": "#13"},
				"east": {"uv": [8.5, 6.5, 9, 7], "texture": "#13"},
				"south": {"uv": [7, 4, 8, 4.5], "texture": "#13"},
				"west": {"uv": [8.5, 7, 9, 7.5], "texture": "#13"},
				"up": {"uv": [8, 5, 7, 4.5], "texture": "#13"},
				"down": {"uv": [8, 5, 7, 5.5], "texture": "#13"}
			}
		},
		{
			"name": "octagon",
			"from": [1.96266, 2.9072, 13.64331],
			"to": [2.76774, 4.85082, 14.11419],
			"rotation": {"angle": 45, "axis": "z", "origin": [8, 9.51381, 6.0576]},
			"faces": {
				"north": {"uv": [0, 7.5, 0.5, 8.5], "texture": "#13"},
				"east": {"uv": [0.5, 7.5, 1, 8.5], "texture": "#13"},
				"south": {"uv": [1, 7.5, 1.5, 8.5], "texture": "#13"},
				"west": {"uv": [1.5, 7.5, 2, 8.5], "texture": "#13"},
				"up": {"uv": [2.5, 9.5, 2, 9], "texture": "#13"},
				"down": {"uv": [3, 9, 2.5, 9.5], "texture": "#13"}
			}
		},
		{
			"name": "octagon",
			"from": [7.59746, 0.57319, 13.64331],
			"to": [8.40254, 2.51681, 14.11419],
			"rotation": {"angle": 0, "axis": "y", "origin": [8, 9.51381, 6.0576]},
			"faces": {
				"north": {"uv": [4, 7.5, 4.5, 8.5], "texture": "#13"},
				"east": {"uv": [4.5, 7.5, 5, 8.5], "texture": "#13"},
				"south": {"uv": [6, 7.5, 6.5, 8.5], "texture": "#13"},
				"west": {"uv": [6.5, 7.5, 7, 8.5], "texture": "#13"},
				"up": {"uv": [3.5, 9.5, 3, 9], "texture": "#13"},
				"down": {"uv": [4, 9, 3.5, 9.5], "texture": "#13"}
			}
		},
		{
			"name": "octagon",
			"from": [1.39339, 3.47647, 13.64331],
			"to": [3.33701, 4.28155, 14.11419],
			"rotation": {"angle": 45, "axis": "z", "origin": [8, 9.51381, 6.0576]},
			"faces": {
				"north": {"uv": [7, 5.5, 8, 6], "texture": "#13"},
				"east": {"uv": [5, 9, 5.5, 9.5], "texture": "#13"},
				"south": {"uv": [7, 6.5, 8, 7], "texture": "#13"},
				"west": {"uv": [5.5, 9, 6, 9.5], "texture": "#13"},
				"up": {"uv": [8, 8, 7, 7.5], "texture": "#13"},
				"down": {"uv": [8.5, 0, 7.5, 0.5], "texture": "#13"}
			}
		},
		{
			"name": "octagon",
			"from": [7.02819, 1.14246, 13.64331],
			"to": [8.97181, 1.94754, 14.11419],
			"rotation": {"angle": 0, "axis": "y", "origin": [8, 9.51381, 6.0576]},
			"faces": {
				"north": {"uv": [7.5, 0.5, 8.5, 1], "texture": "#13"},
				"east": {"uv": [6.5, 9, 7, 9.5], "texture": "#13"},
				"south": {"uv": [7.5, 1, 8.5, 1.5], "texture": "#13"},
				"west": {"uv": [7, 9, 7.5, 9.5], "texture": "#13"},
				"up": {"uv": [8.5, 2, 7.5, 1.5], "texture": "#13"},
				"down": {"uv": [8.5, 3, 7.5, 3.5], "texture": "#13"}
			}
		},
		{
			"name": "octagon",
			"from": [1.96266, 2.9072, 14.29956],
			"to": [2.76774, 4.85082, 14.77044],
			"rotation": {"angle": 45, "axis": "z", "origin": [8, 9.51381, 6.0576]},
			"faces": {
				"north": {"uv": [2, 8, 2.5, 9], "texture": "#13"},
				"east": {"uv": [2.5, 8, 3, 9], "texture": "#13"},
				"south": {"uv": [3, 8, 3.5, 9], "texture": "#13"},
				"west": {"uv": [3.5, 8, 4, 9], "texture": "#13"},
				"up": {"uv": [8, 9.5, 7.5, 9], "texture": "#13"},
				"down": {"uv": [8.5, 9, 8, 9.5], "texture": "#13"}
			}
		},
		{
			"name": "octagon",
			"from": [7.59746, 0.57319, 14.29956],
			"to": [8.40254, 2.51681, 14.77044],
			"rotation": {"angle": 0, "axis": "y", "origin": [8, 9.51381, 6.0576]},
			"faces": {
				"north": {"uv": [5, 8, 5.5, 9], "texture": "#13"},
				"east": {"uv": [5.5, 8, 6, 9], "texture": "#13"},
				"south": {"uv": [7, 8, 7.5, 9], "texture": "#13"},
				"west": {"uv": [7.5, 8, 8, 9], "texture": "#13"},
				"up": {"uv": [9, 9.5, 8.5, 9], "texture": "#13"},
				"down": {"uv": [9.5, 9, 9, 9.5], "texture": "#13"}
			}
		},
		{
			"name": "octagon",
			"from": [1.39339, 3.47647, 14.29956],
			"to": [3.33701, 4.28155, 14.77044],
			"rotation": {"angle": 45, "axis": "z", "origin": [8, 9.51381, 6.0576]},
			"faces": {
				"north": {"uv": [7.5, 3.5, 8.5, 4], "texture": "#13"},
				"east": {"uv": [9, 2, 9.5, 2.5], "texture": "#13"},
				"south": {"uv": [7.5, 6, 8.5, 6.5], "texture": "#13"},
				"west": {"uv": [9, 2.5, 9.5, 3], "texture": "#13"},
				"up": {"uv": [9, 8.5, 8, 8], "texture": "#13"},
				"down": {"uv": [9, 2, 8, 2.5], "texture": "#13"}
			}
		},
		{
			"name": "octagon",
			"from": [7.02819, 1.14246, 14.29956],
			"to": [8.97181, 1.94754, 14.77044],
			"rotation": {"angle": 0, "axis": "y", "origin": [8, 9.51381, 6.0576]},
			"faces": {
				"north": {"uv": [8, 2.5, 9, 3], "texture": "#13"},
				"east": {"uv": [9, 3.5, 9.5, 4], "texture": "#13"},
				"south": {"uv": [8, 4, 9, 4.5], "texture": "#13"},
				"west": {"uv": [9, 4, 9.5, 4.5], "texture": "#13"},
				"up": {"uv": [9, 5, 8, 4.5], "texture": "#13"},
				"down": {"uv": [9, 5, 8, 5.5], "texture": "#13"}
			}
		},
		{
			"name": "octagon",
			"from": [2.3249, 2.82547, 7.03194],
			"to": [3.08167, 4.65247, 7.55681],
			"rotation": {"angle": 45, "axis": "z", "origin": [8, 9.03568, 7.10177]},
			"faces": {
				"north": {"uv": [8, 6.5, 8.5, 7.5], "texture": "#13"},
				"east": {"uv": [0, 8.5, 0.5, 9.5], "texture": "#13"},
				"south": {"uv": [0.5, 8.5, 1, 9.5], "texture": "#13"},
				"west": {"uv": [1, 8.5, 1.5, 9.5], "texture": "#13"},
				"up": {"uv": [9.5, 5, 9, 4.5], "texture": "#13"},
				"down": {"uv": [9.5, 5, 9, 5.5], "texture": "#13"}
			}
		},
		{
			"name": "octagon",
			"from": [7.62161, 0.6315, 7.03194],
			"to": [8.37839, 2.4585, 7.55681],
			"rotation": {"angle": 0, "axis": "y", "origin": [8, 9.03568, 7.10177]},
			"faces": {
				"north": {"uv": [1.5, 8.5, 2, 9.5], "texture": "#13"},
				"east": {"uv": [4, 8.5, 4.5, 9.5], "texture": "#13"},
				"south": {"uv": [4.5, 8.5, 5, 9.5], "texture": "#13"},
				"west": {"uv": [6, 8.5, 6.5, 9.5], "texture": "#13"},
				"up": {"uv": [9.5, 6, 9, 5.5], "texture": "#13"},
				"down": {"uv": [9.5, 6, 9, 6.5], "texture": "#13"}
			}
		},
		{
			"name": "octagon",
			"from": [1.78978, 3.36058, 7.03194],
			"to": [3.61679, 4.11736, 7.55681],
			"rotation": {"angle": 45, "axis": "z", "origin": [8, 9.03568, 7.10177]},
			"faces": {
				"north": {"uv": [8, 5.5, 9, 6], "texture": "#13"},
				"east": {"uv": [9, 6.5, 9.5, 7], "texture": "#13"},
				"south": {"uv": [8, 7.5, 9, 8], "texture": "#13"},
				"west": {"uv": [9, 7, 9.5, 7.5], "texture": "#13"},
				"up": {"uv": [9, 9, 8, 8.5], "texture": "#13"},
				"down": {"uv": [9.5, 0, 8.5, 0.5], "texture": "#13"}
			}
		},
		{
			"name": "octagon",
			"from": [7.0865, 1.16661, 7.03194],
			"to": [8.9135, 1.92339, 7.55681],
			"rotation": {"angle": 0, "axis": "y", "origin": [8, 9.03568, 7.10177]},
			"faces": {
				"north": {"uv": [8.5, 0.5, 9.5, 1], "texture": "#13"},
				"east": {"uv": [9, 7.5, 9.5, 8], "texture": "#13"},
				"south": {"uv": [8.5, 1, 9.5, 1.5], "texture": "#13"},
				"west": {"uv": [9, 8, 9.5, 8.5], "texture": "#13"},
				"up": {"uv": [9.5, 2, 8.5, 1.5], "texture": "#13"},
				"down": {"uv": [9.5, 3, 8.5, 3.5], "texture": "#13"}
			}
		}
	],
	"display": {
		"thirdperson_righthand": {
			"rotation": [90, 0, 0],
			"translation": [0, 0, 3],
			"scale": [0.5, 0.5, 0.5]
		},
		"thirdperson_lefthand": {
			"rotation": [90, 0, 0],
			"translation": [0, 0, 3],
			"scale": [0.5, 0.5, 0.5]
		},
		"firstperson_righthand": {
			"rotation": [90, 0, 30]
		},
		"firstperson_lefthand": {
			"rotation": [90, 0, 30]
		},
		"fixed": {
			"rotation": [90, 45, 0],
			"translation": [1.25, -1.75, 6]
		},
		"ground": {
			"translation": [0, 4, 0]
		},
		"gui": {
			"rotation": [90, 0, 30],
			"translation": [-3, 3, 0]
		}
	}
}