{
  "processing_ticks": 200,
  "ingredients": [
    {
      "item": "tardis:artron_capacitor"
    },
    {
      "item": "minecraft:iron_ingot"
    },
    {
      "item": "minecraft:glass"
    },
    {
      "item": "minecraft:redstone"
    }
  ],
  "result": {
    "item": "tardis:roundel_tap"
  },
  "repair": false,
  "type": "tardis:quantiscope"
}