{
  "type":"normal",
  "text":"The compartment with a blue door is the Component Panel, explained more in the Subsystems section. The compartment with the green door is the Upgrades section which adds more capabilities to your timeship. The compartment with a yellow door is the Charging/Attunement panel. The left hand slots can charge any Artron-capable items added into it. The right hand slot is the Attunement slot, which is explained later. The compartment with the red door is the Artron Banks, for Artron Capacitors which allow a timeship to refuel itself."
}